<?xml version="1.0" encoding="iso-8859-1"?>
<!-- Generator: Adobe Illustrator 16.0.0, SVG Export Plug-In . SVG Version: 6.00 Build 0)  -->
<!DOCTYPE svg PUBLIC "-//W3C//DTD SVG 1.1//EN" "http://www.w3.org/Graphics/SVG/1.1/DTD/svg11.dtd">
<svg version="1.1" xmlns="http://www.w3.org/2000/svg" xmlns:xlink="http://www.w3.org/1999/xlink" x="0px" y="0px" width="128px"
	 height="128px" viewBox="0 0 128 128" style="enable-background:new 0 0 128 128;" xml:space="preserve">
<g id="_x31_50-enviar-realizados">
	<path style="fill:#5C5C5C;" d="M5.667,109.263C21.91,86.523,44.649,76.129,77.135,76.129v26.637l45.479-45.479L77.135,11.807
		v25.988C31.655,44.291,12.164,76.776,5.667,109.263z"/>
</g>
<g id="Layer_1">
</g>
</svg>
