<?xml version="1.0" encoding="iso-8859-1"?>
<!-- Generator: Adobe Illustrator 16.0.0, SVG Export Plug-In . SVG Version: 6.00 Build 0)  -->
<!DOCTYPE svg PUBLIC "-//W3C//DTD SVG 1.1//EN" "http://www.w3.org/Graphics/SVG/1.1/DTD/svg11.dtd">
<svg version="1.1" xmlns="http://www.w3.org/2000/svg" xmlns:xlink="http://www.w3.org/1999/xlink" x="0px" y="0px" width="128px"
	 height="128px" viewBox="0 0 128 128" style="enable-background:new 0 0 128 128;" xml:space="preserve">
<g id="_x31_9-wallet">
	<path style="fill:#59595C;" d="M112.001,16H16C9.344,16,4.059,21.341,4.059,27.999L4,99.999C4,106.656,9.344,112,16,112h96.001
		c6.655,0,11.999-5.344,11.999-12.001v-72C124,21.341,118.656,16,112.001,16z M112.001,99.999H16V64h96.001V99.999z M112.001,40H16
		V27.999h96.001V40z"/>
</g>
<g id="Layer_1">
</g>
</svg>
