<?xml version="1.0" encoding="iso-8859-1"?>
<!-- Generator: Adobe Illustrator 16.0.0, SVG Export Plug-In . SVG Version: 6.00 Build 0)  -->
<!DOCTYPE svg PUBLIC "-//W3C//DTD SVG 1.1//EN" "http://www.w3.org/Graphics/SVG/1.1/DTD/svg11.dtd">
<svg version="1.1" xmlns="http://www.w3.org/2000/svg" xmlns:xlink="http://www.w3.org/1999/xlink" x="0px" y="0px" width="128px"
	 height="128px" viewBox="0 0 128 128" style="enable-background:new 0 0 128 128;" xml:space="preserve">
<g id="_x38_6-map">
	<path style="fill:#59595C;" d="M121.611,3l-1.086,0.205L84.333,17.234L43.667,3L5.436,15.877C4.02,16.351,3,17.572,3,19.13v102.481
		C3,123.511,4.496,125,6.389,125l1.086-0.205l36.192-14.025L84.333,125l38.231-12.881c1.416-0.47,2.436-1.694,2.436-3.249V6.389
		C125,4.489,123.504,3,121.611,3z M84,111.444L44,97.147V16.556l40,14.3V111.444z"/>
</g>
<g id="Layer_1">
</g>
</svg>
