  {
    "addMealPlan":{
      "addMealPlan":"Adicionar plano de refeições"
    },
    "addTicket":{
      "addTicket":"Adicionar ingresso"
    },
    "billing": {
      "enterName": "Digite o Nome",
      "enterFiscalCondition": "Insira o Tipo de Contribuinte",
      "enterDocumentType": "Insira o Tipo",
      "enterDocumentNumber": "Insira o Documento",
      "enterStreet": "Digite o Endereço",
      "enterNumber": "Digite o Número",
      "enterZipCode": "Digite o CEP",
      "enterProvince": "Insira o Estado",
      "enterCity": "Digite a Cidade",
      "invalidDocumentPerson": "O Documento deve pertencer a uma pessoa física ou jurídica",
      "deletedBilling": "Dado excluído",
      "number":"Número",
      "infoDocumentNumber":"Sem espaços ou caracteres especiais",
      "validNit": "Digite um CPF válido"
    },
    "car": {
      "driver": "Condutor"
    },
    "checkout": {
      "addBillingError":"Ui, não conseguimos salvar as informações de faturamento",
      "addCardToWalletError":"Ui, não conseguimos adicionar o cartão à sua carteira",
      "addSecure": "Você quer adicionar um seguro viagem?",
      "addSecureOk": "Sim, quero adicionar um seguro por",
      "adultPrice": "Preço por adulto",
      "almostDone": "Você está quase no fim!",
      "backButtonTitle": "Ops, não é possível voltar para a página anterior",
      "backButtonMsgLoggedIn":"Ops, não é possível voltar para a página anterior",
      "backButtonMsgLoggedOut": "Ops, não é possível voltar para a página anterior",
      "billData": "Dados de faturamento",
      "birdthDateValidation": "Verifique a data de nascimento selecionada",
      "bonus": "Seu cartão tem desconto",
      "bonusInfo1": "Preço com desconto para 1 parcela",
      "bonusInfo2": "O desconto pode diminuir para pagamentos em mais parcelas",
      "buyConfirm": "Confirmação de compra",
      "buyFor": "Comprar por",
    "car": "Carro",
      "cardData": "Dados do cartão",
      "contactData": "Informações de contato",
      "cancelPolicies": "Política de cancelamento",
      "cardWithoutBank": "{{cardName}} todos os bancos",
      "CFT": "CFT",
      "chargeMsg": "Tu tarjeta recarga",
      "chkTermsConditions": "Termos e condições e políticas de privacidade",
      "checkData": "Garanta que os dados inseridos estejam corretos.",
      "cober": "Cobertura completa",
      "due": "Parcela",
      "dues": "Parcelas",
      "duesB": "Até {{dues}} parcelas!",
      "duesC": "Hasta {{dues}} cuotas con recargo",
      "eTicket": "E-ticket",
      "eTicketInfoA": "Quando o pagamento for confirmado, você poderá checar seu voucher em \"Reservas\"",
      "eTicketInfoB": "Também enviaremos um e-mail com todos os detalhes da reserva para você. ",
      "eTicketInfoAGuest": "Enviaremos um e-mail com todos os detalhes da reserva para você. ",
      "eTicketInfoBGuest": "Faça seu login e salve os seus ingressos e vouchers.",
      "flat": "Apartamento",
      "flatB": "Apto.",
    "flight": "Voo",
      "financialCost": "Custo financeiro",
      "finishBuy": "Finalize a sua compra",
      "fiscalInfo": "Por disposición de la AFIP, la factura tiene que ser emitida",
      "fiscalInfoBold": "Em nome da pessoa que efetua o pagamento.",
      "fiscalName": "Nome / Razão Social",
      "fiscalSituation": "Tipo de Contribuinte",
      "fixedCancelPolicy": "Cancele a reserva a partir de {{to}} e pague {{currency}} {{amount}}.",
      "fixedCancelPolicy2": "Se você cancelar a reserva entre {{from}} e  {{to}} terá uma taxa de {{currency}} {{amount}}",
      "floor": "Andar",
      "freeCancelPolicy": "Cancele grátis a reserva até o dia {{date}}.",
      "foreignBuy": "Para comprar vuelos que no salgan de Argentina, llamá al",
      "foreignBuy2": "ou procure",
      "foreignBuyPhone": "4003-6257",
      "howToPay": "Como prefere pagar?",
      "handlingFees": "Taxa de administração",
    "insurance": "Seguro",
      "interests": "Juros",
    "itemMoved": "O {{productType}} foi movido para {{tripName}}.",
      "holderDocumentType":"Tipo de documento",
      "holderDocumentNumber":"Número do documento",
    "hotel": "Hotel",
      "likeId": "Como aparece no documento de viagem",
      "moreCancelPolicies": "Mais opções de cancelamento",
      "nightCancelPolicy": "Se você cancelar a reserva até {{to}}, pagará o custo equivalente a uma noite. ",
      "nightCancelPolicy2": "Se você cancelar a reserva entre {{from}} e {{to}}, pagará o custo equivalente a 1 noite. ",
      "nightsCancelPolicy": "Se você cancelar a reserva até {{to}}, pagará o custo equivalente a {{nights}} noites. ",
      "nightsCancelPolicy2": "Se você cancelar a reserva entre {{from}} e {{to}}, você pagará o equivalente a {{nights}} noites.",
      "noSpace": "Sem espaços, nem caracteres especiais",
      "notPromotion": "Sem desconto",
      "offersPromos": "Quero receber ofertas e promoções para minha próxima viagem.",
      "pay": "Você vai pagar",
      "paymentInfo": "Você vai pagar sua estadia no hotel.",
      "paymentInfo2": "O cartão de crédito será usado como garantia da sua reserva.",
      "passangers": "Quem vai viajar?",
      "percentualCancelPolicy": "Cancele a reserva a partir de {{to}} e pague {{percentage}}% do total.",
      "percentualCancelPolicy2": "Se você cancelar a reserva entre {{from}} e {{to}}, você pagará {{percentage}}% do total.",
      "postCode": "CEP",
      "postCode2": "Código postal",
      "priceWithBonus": "Total com desconto",
      "pricePerPerson": "Preço por pessoa",
      "pricePerPassen": "Preço por passageiro",
      "product": "Produto",
      "quota": "1 parcela",
      "quotasCount": "{{quotas}} parcelas ",
      "quotes": "parcelas sem juros",
      "reservCode": "Código de reserva",
      "reservCodeInfo": "O pagamento está pendente. ",
      "reservCodeInfo2":"Assim que o pagamento for confirmado, você poderá consultar os detalhes da sua compra em ",
      "reservCodeInfo2b":"Também enviaremos um e-mail para você com essa informação.",
      "reservCodeInfoNotLog":"Assim que o pagamento for confirmado, enviaremos um e-mail para você com essa informação. ",
      "reservCodeInfoNotLog2":"Faça login para guardar seus ingressos e vouchers.",
      "scanCard": "Você pode escanear o seu cartão. É mais fácil!",
      "secureCodeToolTip": "São 3 números que estão no verso do seu cartão. ",
      "secureCodeAmexToolTip": "São 4 números que estão na frente do seu cartão. ",
      "securityNumber": "Código de segurança",
      "seeCober": "Ver cobertura completa",
      "seeReservation": "Reservas",
      "sendTicket": "Para quem enviamos o voucher?",
      "sendBill": "Para quem enviamos a fatura?",
      "sendBills": "Para quem enviamos suas faturas?",
      "state": "Estado",
      "summaryCheckItineraryBox": "Estou de acordo com o itinerário, quantidade de passageiros e tarifa.",
      "summaryModalTitle": "Confirme sua compra",
      "summaryModalConfirm": "Confirmo",
      "summaryModalCancel": "Cancelar",
      "TEA": "TEA",
      "thanksForChoose": "Obrigada por nos escolher!",
      "thanksForChoose2": "Obrigada por nos escolher",
      "titularName": "Nome do titular",
      "totalTariff": "Tarifa total",
      "totalToPay": "Total a pagar",
      "totalPrice": "Preço total",
      "useMyData": "Usar meus dados",
    "useMyAccountData": "Usar dados da minha conta",
      "useMyBillData":"Quero usar essa informação no futuro",
      "whereIFind": "Onde podemos te encontrar?",
      "with": "Com",
      "withPromotion": "Com promoção",
      "withoutRefuond": "Se você cancelar a reserva, não terá reembolso. Uma vez confirmada a reserva, não poderá modificar as datas. "
    },
    "checkoutError": {
      "accountUpsertErrorTitle": "Ui, alguma informação está incorreta",
      "accountUpsertError": "Verifique todas as informações e tente novamente.",
      "apiKeyRequired": "Ops, encontramos um erro. Tente novamente em alguns minutos. ",
      "armError": "Ops, encontramos um erro. Tente novamente em alguns minutos. ",
      "armIDerror": "Ops, encontramos um erro. Tente novamente em alguns minutos. ",
      "cancelError": "Ops, encontramos um erro. ",
      "cancelError2": "Tente novamente em alguns minutos",
      "cartAlreadyReserved": "Ui, o que você buscava não está mais disponível. Não se preocupe, temos mais opções.",
      "creditCardEncrypted": "Ops, encontramos um erro. Tente novamente em alguns minutos. ",
      "creditCardErrorMessage": "Revise as informações e tente novamente.",
      "creditCardErrorMessageTitle": "Alguma informação do cartão de crédito está incorreta. ",
      "creditCardDecryption": "Ops, encontramos um erro. Volte a tentar em alguns minutos. ",
      "creditCardProcessing": "Ops, encontramos um erro. Volte a tentar em alguns minutos. ",
      "duplicatePnrModalTitle":"Ops, você já reservou a passagem",
      "duplicatePnrModal": "Verifique a sua caixa de entrada ou ligue para 4003-6257 para saber mais detalhes do voo",
      "expiredPolicyInPaymentMethod": "Tente novamente com outro cartão ou opção de parcelamento. ",
      "fopNotFound": "Tente novamente com outro cartão ou opção de parcelamento. ",
      "fopNotFoundTitle":"Esse meio de pagamento não está disponível. ",
      "genericErrorFlight":"O voo não está disponível. Não se preocupe que temos mais opções. ",
    "insuranceError": "Ops, ocorreu um erro na reserva do seguro viagem. Tente novamente.",
    "insuranceError2": "Ops, ocorreu um erro na reserva do seguro viagem. Tente novamente.",
    "invalidBinValidation": "O número do cartão não coincide com a bandeira que você escolheu.",
    "invalidBinValidationTitle": "Ops, encontramos um problema com o cartão",
    "invalidBirthDate": "Ops, encontramos um erro na data de nascimento. ",
    "invalidCreditCardAlgorithm": "Ops, encontramos um erro no número do seu cartão.",
    "invalidCreditCardBrandValidation": "O número do cartão não coincide com a bandeira que você escolheu.",
    "invalidCreditCardNumber": "Encontramos um erro no número do seu cartão. ",
    "invalidDocumentExpirationDate": "Ops, encontramos um erro na data de vencimento do seu passaporte. ",
    "invalidPassengerAge": "Verifique a data de nascimento dos passageiros ou modifique a sua busca. ",
    "invalidPromoMessage": "O número do cartão não coincide com a bandeira que você escolheu.",
    "invalidTelephoneNumber": "Ops, encontramos um erro no número de telefone. ",
    "passengerNameTooLongErrorMessage": "Não preencha o segundo nome ou o primeiro sobrenome dos passageiros e tente novamente.",
    "passengerNameTooLongErrorMessageTitle": "O nome de um ou mais passageiros é muito grande. ",
    "passengerPassportRequired": "Ops, faltou digitar o passaporte de um ou mais passageiros. ",
      "priceDiferenceFlight":"Houve uma mudança de preço no voo. ",
      "priceFlight":"O voo não está mais disponível. Alguém se adiantou e reservou primeiro. Não se preocupe, temos mais opções. ",
    "productBookingerror":"Ops, esse {{product}} não está disponível",
    "productBookingerror2": "Não conseguimos fazer a reserva, realize uma nova busca.",
    "productNotBooked":"A reserva não está disponível. ",
    "productNotBooked2": "Alguém se adiantou e reservou primeiro. Não se preocupe, temos mais opções. ",
    "productUnavailable": "Alguém se adiantou e reservou primeiro. Não se preocupe, temos mais opções. ",
    "tooMuchInfants": "Para viajar com mais crianças, será necessário reservar mais assentos. ",
      "tooMuchInfantsTitle": "Só é permitido levar um bebê no colo por adulto",
      "unableToConfirmFlight":"O voo não está mais disponível. Não se preocupe, temos mais opções. "
  },
  "clubAlmundo": {
    "addPoints": "#BenefíciosASerio",
    "addInfo1": "Quanto mais você viaja, mais você economiza. Junte-se ao Almundo.com e comece a juntar pontos. Você poderá acessar eventos especiais, ver suas reservas, comprar mais rápido e pagar suas viagens com pontos!",
    "addInfo2": "Além disso, você terá acesso a benefícios e eventos exclusivos, apenas por ser um membro. Sem ter que gastar seus pontos!",
    "addInfo3": "Inscreva-se agora e comece a juntar pontos.",
    "awardsInfo": "Participe de experiências exclusivas.",
    "benefitsInfo": "Com o nosso processo de pagamento rápido, comprar sua viagem nunca foi tão fácil. ",
    "catalog": "Conheça mais",
    "checkAccount": "Verifique a sua conta",
    "checkAccountInfo": "para que verifique sua conta e possa se associar a Club Almundo",
    "clubAlmundo": "O que é Club Almundo?",
    "clubAlmundoError": "Não conseguimos finalizar o seu cadastro no Club Almundo. Ligue para 4003-6257 para que possamos ajudá-lo.",
    "discountsInfo": "Cada ponto que você junta representa um desconto de US$ 1 na sua próxima viagem.",
    "experiencesInfo": "Leve seus vouchers com você. Você pode consultar suas compras de hotéis, passagens e carros aonde você estiver. ",
    "idRequired": "Sem espaços, nem pontos. ",
    "idError": "O documento que você digitou está associado a outra conta. ",
    "info1": "Todas as suas compras em Almundo.com somam pontos que podem ser trocados por prêmios, descontos e promoções. ",
    "infoBonus": "Quando você compra com pontos, cada ponto vale US$ 1. ",
    "moreInfo": "Conheça mais",
    "partner": "Quero ser membro",
    "sendEmailIos": "Enviamos um e-mail para que você verifique a sua conta e possa se associar ao Club Almundo. ",
    "welcomeMsg": "Bem-vindo, você já é parte do Club Almundo",
    "welcomeMsgInfo": "Não perca mais tempo, comece agora a juntar pontos com as suas viagens. "
  },
  "contact": {
    "address": "Almundo.com | SAS NIT 900844720 - 1 | Autopista Norte 122, 35 Piso 3 PBX | (+57) 1 5082969 | RNT 39681",
    "attention24hs": "Atendimento telefônico",
    "call": "Ligue",
    "chat": "Converse no chat",
    "chatUnavailable":"Não há agentes disponíveis",
    "clientAttention": "Atendimento ao cliente",
    "contactDays": "Segunda a sexta, das 9h às 21h",
    "contactDays2": "Sábados, Domingos e Feriados: 10h às 16h",
    "contactDays3": "Domingos y festivos de 10 a 16 hs",
    "contactUs": "Entre em contato",
    "contactUs2": "Entre em contato",
    "followUs": "Siga-nos em ",
    "fromAbroad": "Do exterior",
    "loadingChatAvailable": "Buscando agentes...",
    "goToWeb": "Entre no nosso site",
    "schedules": "Horário de atendimento telefônico",
    "telephoneAnswering": "Horário de atendimento telefônico"
  },
  "cyberMonday":{
    "cyberMonday": "CyberMonday",
    "hours": "Horas",
    "minutes": "Minutos",
    "seconds": "Segundos",
    "promotionInsurance": "Aproveite os descontos para viajar quando quiser!"
  },
  "discovery":{
    "chooseA": "Escolha um voo e um hotel",
    "chooseB": "Comprar tudo pronto",
    "search": "O que você está buscando?",
    "package": "Pacotes",
    "flightsHotel": "Passagem + Hotel",
    "allCategories": "Passagem, hotel, traslados e atividades",
    "destination": "Destino",
    "origin": "Origem",
    "packageInfo": "Para saber mais sobre esse pacote, ligue para 4003-6257",
    "phone": "4003-6257"
  },
  "disney":{
    "acuaticParks":"Parques aquáticos",
    "acuaticPark":"Parque aquático",
    "addMealPlan":"Adicione plano de refeição",
    "addTicket":"Adicione ingresso",
    "animalKingdom":"Disney's Animal Kingdom Theme Park",
    "badComb":"Ops, essa combinação não funciona",
    "blizzardBeach":"Disney's Blizzard Beach",
    "changeTickets":"Trocar ingressos",
    "changeMealPLan":"Trocar plano de refeições",
    "changeRoom":"Ops, se você escolher esse quarto, o ingresso que selecionou não estará disponível. Mas, temos outras opções de ingressos para você escolher. ",
    "changeRooms2":"Ops, se selecionar esse quarto, o preço do ingresso será atualizado. ",
    "chooseDays":"Escolha o número de dias",
    "choosePlan":"Escolha o plano",
    "chooseTicket":"Escolha o ingresso",
    "chooseTicketType":"Escolha o tipo de ingresso",
    "detail":"Ver detalhe",
    "disney": "Disney",
    "disneyWorld": "Walt Disney World, Estados Unidos da América",
    "epcot":"Epcot",
    "espnWide":"Complexo Esportivo ESPN Wide World of Sports",
    "exclusiveMPlan":"Exclusivo para os ingressos selecionados",
    "food": "Planos de refeição Disney",
    "foodText": "Contratando os ",
    "foodText2": "Planos de refeição",
    "foodText3": "você pode aproveitar de lanches a experiências gastronômicas em mais de 200 lanchonetes e restaurantes.",
    "freeMeal":"Refeição grátis",
    "gralConditions":"Ver condições gerais do ingresso",
    "golfCourse":"Disney's Oak Trail Golf Course",
    "golfMiniature":"Disney's Fantasia Gardens Miniature Golf Course",
    "golfWinterSummer":"Disney's Winter Summerland Miniature Golf Course",
    "gralConditionsA":"Condições gerais",
    "hotelBennefits":"Desconto em hoteis",
    "hotelIn":"Hotel em ",
    "hollywoodStudio":"Disney's Hollywood Studios",
    "howReserv":"Como faço a reserva?",
    "infoMealPlan":"O que são os planos de refeição?",
    "infoMsg":"A contratação dos planos de refeição são para todos os hóspedes e por dia de estadia. ",
    "keepPass":"Cancelar e manter meu ingresso. ",
    "kidsNiteout":"Kid´s Nite out, INC.",
    "kidNOInfo1":"A equipe da Kid's Nite Out fornece assistência infantil personalizada nos quartos dos hotéis de",
    "kidNiteInfo1":"A equipe",
    "kidNiteInfo2":"Kid´s Nite Out",
    "kidNiteInfo3":"fornece assistência e cuidado personalizado para as crianças nos quartos dos hotéis de",
    "kidNOInfo2":"As atividades incluem leitura de livros, colorir ou jogos de espiar. Você também pode contratar uma babá para que saia com a família, se necessário. Kid's Nite Out também realiza acampamentos e planeja festas temáticas para crianças. ",
    "KNOItem1":"As reservas são antecipadas. Você pode ligar de segunda a domingo, das 8:00 às 21:00.",
    "KNOItem2":"Os serviços estão disponíveis 24 hs, durante os 7 dias da semana nos hotéis de ",
    "KNOItem3":"O mínimo de reserva é de 4 horas para crianças de 6 meses a 12 anos. ",
    "KNOItem4":"Você pode reservar com até 90 dias de antecedência. ",
      "KNOItem5":"Cancele a reserva até 24 hs antes. Caso contrário, será cobrado o valor mínimo, por 4 horas. ",
    "magicBands": "Pulseiras MagicBands",
    "magicBandsText": "As pulseiras",
    "magicBandsText2": "MagicBands",
    "magicBandsText3": "elas podem ser usadas para entrar nos quartos, nos Parques de",
    "magicBandsText4": "e também para pagar por compras e refeições. ",
    "mealPlan":"Plano de refeições",
    "mealPlanCard":"A contratação do plano de refeições é para todos os hóspedes pelo total de dias da estadia. ",
    "mealPlanCard2":"Para todos os hóspedes pelo total de dias da estadia. ",
    "mealPlanrDescrip":"Os planos de refeição são para todos os hóspedes pelo total de dias de estadia de ",
    "MKmoreFun":"Magia a sua maneira + Parques aquáticos e mais diversão",
    "MKPark":"Magia à sua Maneira",
    "MKInfoA":"Com o ingresso",
    "MKInfoB":"Visite um parque temático por dia. Você pode escolher entre os quatro Parques Temáticos de",
    "MKParkBasic":"Magia à sua Maneira básico",
    "MKPIcon":"Magic Kingdom Park",
    "MKTicketsInfo":"Promoção {{plan}} GRATIS",
    "MKTicketsInfo2":"se escolher esse ingresso",
    "MKTicketsInfo3":"te presenteamos com {{plan}},",
    "MKTicketsInfo4":"por toda a sua estadia e para todos os hóspedes dentro de ",
    "MPExclusive":"Os Planos de Refeição Disney são exclusivos para os hóspedes dos Hotéis Disney e dão a oportunidade de desfrutar de lanches e refeições luxuosas com mais de 100 restaurantes, de uma maneira econômica, dentro de",
    "MPOpt":"Opções de plano de refeições",
    "MPFastFood":"Plano de refeições rápidas",
    "MPFastFood3":"Plano de refeições rápidas!",
    "MPFastFood2":"Refeições rápidas",
    "MPFFSubtitle":"Cada pessoa com mais de 3 anos receberá por noite:",
    "MPFFInfo1":"Duas refeições de serviço rápido: prato principal e bebida não alcoólica ou uma refeição de tipo combo.",
    "MPFFInfo2":"Dois lanches para escolher: um sorvete ou picolé, um saco de pipoca, uma fruta ou um refrigerante médio ou suco.",
    "MPFFInfo3":"Um copo recarregável de bebidas por pessoa. ",
    "MPBasicFood":"Plano de refeições básico",
    "MPBasicFood2":"Refeições básico",
    "MPBFInfo1":"Uma refeição com serviço de mesa: prato principal, sobremesa e bebida não alcoólica ou um buffet completo.",
    "MPBFInfo2":"Uma refeição de serviço rápido: prato principal e bebida não alcoólica ou uma refeição tipo combo.",
    "MPRemember":"Lembre-se que ",
    "MPIncludes":"O que o plano inclui?",
    "MPLuxuryFood":"Plano de refeições de luxo",
    "MPLuxuryFood2":"Refeições de luxo",
    "MPLFinfo1":"Três refeições para escolher entre restaurantes com serviços de mesa ou de serviço rápido. ",
    "MPLFSubInfo1":"Cada refeição com serviço de mesa inclui: prato principal, sobremesa e bebida não alcoólica ou um buffet completo.",
    "MPLFSubInfo2":"Cada refeição de serviço rápido inclui: prato principal e bebida não alcoólica ou uma refeição de tipo combo.",
    "MPRInfo1":"As gorjetas não estão incluidas.",
    "MPRInfo2":"As crianças entre 3 e 9 anos devem escolher do menu para crianças, caso esteja disponível. ",
    "MPRInfo3":"O plano deve ser contratado para toda a estadia e para todos os hóspedes no quarto (exemplo: 5 noites de estadia incluem 5 dias de refeições).",
    "MPRInfo4":"As refeições não são transferíveis entre pessoas do grupo e expiram à meia-noite da data de partida.",
    "MPRInfo5":"Devido à concorrência de restaurantes com serviço de mesa, a disponibilidade pode ser limitada ou não disponível se você não reservar com antecedência.",
    "MPRInfo6":"Os planos de refeições da Disney não estão disponíveis para menores de 3 anos, mas eles podem compartilhar o prato de um adulto sem custo adicional, ou você pode comprar uma refeição adicional no menu.",
    "MPRights":"Troca de direito de refeições planos básico e de luxo",
    "MPRights1":"Uma refeição com serviço de mesa por pessoa pode ser trocada por uma refeição com personagens (a Royal Table de Cinderela exige duas refeições com serviço de mesa).",
    "MPRights2":"Duas refeições com serviço de mesa por pessoa podem ser trocadas por um dos seguintes: uma refeição em um dos nossos restaurantes mais exclusivos; uma refeição com um show (assentos nas categorias 2 ou 3, categoria 1 no show às 21:30 hs); uma refeição em Cinderella's Royal Tabl e ou uma refeição em serviço de quarto. ",
    "moreFun":"Mais diversão:",
    "notIncludes":"não está incluído no ingresso",
    "notIncludes2":"o ingresso que você escolheu não está disponível",
    "notPass":"Sem ingressos",
    "planIncludes":"O que o plano inclui?",
    "ParkHooper":"Park  Hopper",
    "parking": "Estacionamento e transporte sem custos extras",
    "parkingText": "Os ônibus, barcos, monotrilho e o estacionamento são gratuitos nos hoteis",
    "parkingText2": "Resort Disney, Disney Springs, os Parques Temáticos e os Parques Aquáticos.",
    "PHInfoA":"Visite os parques como quiser!",
    "PHInfoB":"Você pode visitar mais de um parque temático por dia. Você pode visitar um parque por dia ou visitar um na manhã e outro à tarde.",
    "PHInfoC":"Escolha entre os quatro parques temáticos de ",
    "ParkHooperPlus":"Park Hopper Plus",
    "PHPInfoA":"Os dias de visita duplicam!",
    "PHPInfoB":"Você pode visitar os 4 parques temáticos da Disney, conforme desejar, um por dia ou um pela tarde e outro pela manhã.",
    "PHPInfoB2":"E além disso, você tem visitas extras! Você pode visitar os parques aquáticos e atrações de golfe para a mesma quantidade de dias do seu ingresso. ",
    "PHPInfoC":"Parques temáticos de",
    "PHPDuplicate":"Duplica seus dias de ingresso dos Parques Temáticos ou atrações:",
    "planNotCompatible":"Este plano não é compatível com o seu ingresso",
    "popMsg":"Se você trocar esse plano de refeições, precisará escolher outro ingresso",
    "popMsg2":" Se você trocar esse quarto, precisará escolher outro ingresso",
    "programForChildren":"Programa para as crianças",
    "resort":"Walt Disney World Resort",
    "selectedPlan":"O plano de refeições selecionado",
    "showMealPlan":"Ver plano de refeições",
    "tematicPark": "Horário estendido nos parques temáticos",
    "tematicParkText": "Com as ",
    "tematicParkText2": "Extra Magic Hours",
    "tematicParkText3": "você pode aproveitar as atrações especiais quando o parque está fechado para o público geral.",
    "tickets":"Ingressos Disney",
    "ticketsInfoA":"Junte os ingressos Disney a sua reserva no hotel e aproveite a magia de",
    "ticketsInfoB":"ao máximo.",
    "ticketsGuest":"Para todos os hóspedes",
    "tiketsDetail":"Detalhe do ingresso",
    "ticketDetail":"Ver detalhe do ingresso",
    "transport": "Transporte para o aeroporto incluso",
    "transportText": "O serviço",
    "transportText2": "Disney Magical Express",
    "transportText3": "inclui traslados de ida e volta entre o aeroporto e o hotel",
    "typhoonLagoon":"Disney's Typhoon Lagoon",
    "waltDisney":"Walt Disney World"
  },
  "email": {
    "verifiedAccount": "A conta está verificada."
  },
  "explore": {
    "city": "¿Sos un bicho de ciudad?",
    "beach": "Relaxe na praia",
    "mountains": "Anime-se em um local exótico",
      "whereGo": "Para onde você quer ir?",
      "exGo":"Explore o lugar ideal para você"
  },
  "flights": {
    "airport": "Aeroporto",
    "add": "Adicionar voo",
    "adult": "Adulto",
    "adultAgeLimit": "A partir de 12 anos",
    "adults": "Adultos",
    "allAirports":"Todos os aeroportos",
    "allClass": "Todas as classes",
    "arrive": "Chega em ",
    "arrive2": "Chega",
    "arriveTime":"Hora de chegada",
    "arriveFlightDate":"Data de saída",
    "leaveFlightDate":"Data da volta",
    "badSegments":"Tente fazer uma nova busca.",
    "badSegmentsTitle":"Ops, não encontramos o que você está buscando.",
    "beforeDeparture": "A data de chegada é anterior a hora de partida",
    "cabinTypeBussiness": "Business",
    "cabinTypeFirst": "Primeira",
    "cabinTypePremium": "Premium",
    "cabinTypeTurist": "Turista",
    "call":"Ligar",
    "class": "Classe",
    "closeAirport": "Ui, o aeroporto está fechado",
    "closeAirportInfo": "estará fechando entre {{start}} e {{end}}",
    "closeAirportInfo2": "para manutenção. ",
    "closeAirportNear": "O aeroporto mais próximo é ",
    "change": "Troca de aeroporto",
    "changeAirportMsg": "Não há aeroporto nessa cidade, o mais próximo é ",
    "child": "Menor",
    "childAge0": "Menor de 1 ano",
    "childAgeLimit": "De 0 a 11 anos",
    "childs": "Menores",
    "chooseFlight": "Escolha um voo",
    "departure": "Sai ",
    "departureTime":"Hora de saída",
    "departureAirport": "O aeroporto de saída deve estar no país. ",
    "duplicatedRoutes": "As cidades de saída e chegada não podem estar duplicadas. Modifique alguma cidade ou tente com um voo só de ida. ",
    "duplicatedRoutesTitle": "Ops, a rota está duplicada. ",
    "duplicatedRoutesSearchButton":"Buscar voo de ida",
    "flight": "Voo",
    "flights": "Voos",
    "flightsDuration": "Duração do voo",
    "flightsFrom":"Ver voos a partir de",
    "flightsTo":"Ver voos para",
    "goingFrom": "Saio de",
    "goingTo": "Vou para",
    "infant": "Bebê",
    "infantAgeLimit": "Menor de 2 anos",
    "infants": "Bebês",
    "infantsInArms": "Bebês de colo",
    "infantInArm": "Bebê de colo",
    "infantsValidation": "Você só pode levar uma criança com menos de 2 anos no colo por adulto. ",
    "infantsValidation2": "Você só pode levar um bebê de colo por adulto. ",
    "infantsValidation3":"Ops, você só pode levar um bebê de colo por adulto. ",
    "infantsValidation4":"Para viajar com mais crianças, é preciso reservar mais assentos. ",
    "invalidAdults":"Ops, você precisa de ao menos um adulto para poder buscar esse voo.",
    "invalidAdultsButton":"Cargar adulto",
    "invalidChannel":"Se você precisa viajar saindo do exterior, procure a agência mais próxima. ",
    "invalidChannelTitle":"Ops, não conseguimos encontrar esse voo. ",
    "invalidFop":"Não conseguimos fazer a reserva. Tente uma nova busca. ",
    "invalidFopTitle":"Ui,  tivemos um erro. ",
    "invalidOriginDestination":"Não conseguimos encontrar esse voo. Ligue para nosso serviço de atendimento. ",
    "invalidOriginDestinationTitle":"Ops, alguma coisa deu errado.\n",
    "invalidPassengerTitle":"Ops, são muitos passageiros",
    "invalidPassenger":"O máximo de passageiros permitido por busca é 9",
    "invalidPassengerButton":"Editar passageiros",
    "leave": "Sai de ",
    "leaveDate": "Data de saída",
    "luggageA":"Esses voos",
    "luggageASingular":"Esse voo",
    "luggageB":"não inclui bagagem",
    "luggageBSingular":"não incluem bagagem",
    "mexSegmentRequired":"Al menos una ciudad debe ser en México. Edite el origen o el destino para buscar tu vuelo.",
    "mexSegmentRequiredTitle":"No te olvides de México",
    "minDeparture3Days":"Se precisa sair hoje, pode comprar sua passagem na agência mais próxima.",
    "minDeparture3DaysTitle":"Ops, não podemos buscar essa passagem.",
    "missingFrom":"Ops, faltou digitar a sua origem.",
    "missingFromButton":"Completar cidade de origem. ",
    "missingTo":"Ops, faltou completar para onde você vai.",
    "missingToButton":"Completar cidade de origem",
    "mostWanted":"Mais buscados",
    "multiCity": "Várias cidades",
    "nearbyAirports":"Mais próximo",
    "noMatch": "Sentimos muito, não encontramos voos disponíveis para a sua busca. ",
    "onDate": "*A {{date}}",
    "onDepartureDate": "*A data de saída",
    "oneWay": "Somente ida",
    "onReturnDate": "*A data de volta",
    "operator": "Operado por",
    "passengers": "Passageiros",
    "passengersCountValidation": "Ops, você pode comprar até 9 passagens de uma vez. ",
    "pastDeparture":"Ui, ainda não podemos viajar para o passado. Melhor experimentar uma data no futuro. ",
    "pastDepartureButton":"Editar datas",
    "pastDepartureTitle":"Hey Marty!",
    "returnDate": "Data de retorno",
    "roundTrip": "Ida e volta",
    "sameRoute": "A cidade de saída precisa ser diferente da cidade de chegada.",
    "sameRouteButton": "Editar cidade",
    "sameRouteTitle": "Ops, a cidade está repetida",
    "seeBranchs":"Ver agências",
    "tecStop": "Escala",
    "whatType": "Que tipo de voo você está buscando?",
    "weSearch2": "o melhor preço para a sua passagem!",
    "FSR_buyValidation": "Escolha um voo para continuar. ",
    "FSR_buyValidationDeparture":"Escolha um voo de ida para continuar.",
    "FSR_buyValidationReturn":"Escolha um voo de volta para continuar. ",
    "FSR_duration": "Duração",
    "FSR_flight": "Voo",
    "FSR_leave": "Ida",
    "FSR_leg": "Com 1 escala",
    "FSR_legs": "Com {{legs}} escalas",
    "FSR_return": "Volta",
    "FSR_taxesRates": "Impostos e taxas",
    "FSR_titleHeader": "Escolha seus voos",
    "FSR_totalOneDue": "Tarifa total em 1 parcela",
    "FSR_viewPaymentMethods": "Tarifa à vista",
    "FSR_paymentMethods": "Tarifa à vista",
    "FSR_viewPaymentMethodsTitle1":"Com os seguintes cartões de crédito",
    "FSR_viewPaymentMethodsTitle2":"Cuotas fijas con los siguientes bancos",
    "FSRF_afternoon": "Tarde",
    "FSRF_airlines": "Companhias aéreas",
    "FSRF_allAirlines": "Todas as companhias aéreas",
    "FSRF_arrivalAirports": "Aeroportos de volta",
    "FSRF_arriveAt": "Quero chegar em ",
    "FSRF_departureAirports": "Aeroportos de ida",
    "FSRF_departureFlight":"Voo de volta",
    "FSRF_departureTime": "Horários do voo de saída",
    "FSRF_earlyMorning": "Madrugada",
    "FSRF_morning": "Manhã",
    "FSRF_night": "Noite",
    "FSRF_outFrom": "Quero sair de ",
    "FSRF_restartFilter": "Limpar filtros",
    "FSRF_returnTime": "Horários do voo de volta",
    "FSRF_returnFlight":"Voo de volta",
    "FSRF_schedules":"Horários dos voos",
    "FSRF_stop": "Parada",
    "FSRF_stops": "Parada",
    "FSRF_stop_0": "Sem paradas",
    "FSRF_stop_1": "1 parada",
    "FSRF_stop_2": "2 ou mais paradas",
    "FSRF_stop_3": "3 ou mais paradas",
    "FSRF_stop_4": "4 ou mais paradas"
  },
  "insurance":{
    "adult": "Adulto",
    "adults": "Adultos",
    "adultsRange": "de 36 até 69 anos",
      "ageLimit": "Sem limite de idade",
      "ageLimitYoung": "Até 35 anos",
      "ageLimitInfinit": "Até 69 anos",
      "annual": "Anual",
      "annualRange": "Viaje os 365 dias do ano! Sem limite de duração da viagem!",
      "appDiscount": "Desconto promo app",
      "arrive": "Saio de ",
      "cancelPoliciesTitle": "Política de cancelamento",
      "cancelPolicies": "Cancele grátis o seguro até 24 hs antes da viagem",
      "cancelPoliciesDiscount": "Contrate Gold para várias viagens e agora com um desconto de 20%!",
      "charges": "Custos de financiamento",
    "coverage": "Cobertura",
      "destinations": "Destino",
    "elder": "Maior",
    "elders": "Maiores",
    "eldersRange": "Maiores de 60 anos",
      "emContact": "Contato de emergência",
      "extraBenefitsIncluded": "Outros benefícios incluídos na cobertura",
      "insurance": "Seguro viagem",
      "insurance2": "Seguros",
    "international": "Internacional",
    "national": "Nacional",
      "includeOptions": "Incluir opções de cobertura anual",
      "internationaldestinations":"Destinos internacionais",
      "ISR_taxes": "Impostos e taxas",
      "ISR_titleHeader": "Escolha o seu seguro",
      "leaveDate":"Data de saída",
      "leaveOn": "Vou para",
      "multiTrips": "Várias viagens",
      "multiTripsRange": "para várias viagens de até 30 dias cada",
      "multiTripsRangeSince":"Cobertura anual de ",
      "multiTripsRangeUntil":"até ",
      "noMatch": "Sentimos muito, não encontramos seguros disponíveis para a sua busca",
      "onlyTrip": "Viagem única",
    "people": "Pessoas",
      "percentOff": "% de desconto",
      "person": "pessoa",
      "policiesCoverDays" :"7 dias de cobertura para uma única viagem",
      "policiesCoverDaysAnnual": "Cobertura anual ilimitada por 365 dias",
      "policiesCoverDaysMulti": "Cobertura anual para várias viagens de até 30 dias cada",
      "priceNotDiscount":"Preço sem promoção",
      "recentSearchs": "Buscas recentes",
      "returnDate": "Data de retorno",
      "since":"A partir de ",
      "totalCover": "Cobertura total",
      "tooMuchDaysInsurance": "O seguro nacional não pode superar 30 dias. Modifique as datas e tente novamente. ",
      "until": "Até",
      "whoEmContact": "Quem é o seu contato de emergência?",
      "young": "Jovem",
      "youngs": "Jovens",
      "youngsRange": "Até 35 anos"
    },
    "global": {
      "add": "Adicionar",
      "age": "Idade",
      "all": "Todas",
      "all2":"Todos",
      "actual": "Atual",
      "addPassport":"Carregar passaporte",
      "address": "Domicílio",
      "after": "Seguinte",
      "allService": "Todos os serviços",
      "and": "E",
      "apply": "Aplicar",
      "are": "São",
      "area": "Área",
      "awards": "Sorteios e eventos",
      "back": "Voltar",
      "bank": "Banco",
      "before": "Anterior",
      "behind": "Atrás",
      "benefits": "Compre fácil e rápido",
      "bonus": "Desconto",
      "branchs": "Agências",
      "buy": "Comprar",
      "call": "Ligar",
      "checkCardNumber": "Verificar o nº do cartão",
      "cancel": "Cancelar",
      "cancelPay": "Políticas de cancelamento",
      "capture": "Capturar",
      "card": "Cartão de crédito",
      "cardExpiration": "Vencimento do cartão",
      "cardNumber": "Nº do cartão",
      "changeCountry": "Trocar país",
      "changePayment": "Escolher outra forma de pagamento",
      "checkData": "Revisar as informações",
      "city": "Cidade",
      "clubAlmundo": "Club Almundo",
      "close": "Fechar",
      "connectionProblems": "Ui, há problemas com a conexão. Tente novamente mais tarde.",
      "contact": "Contato",
      "continue": "Continuar",
    "completeField":"Complete o campo",
      "coin": "Moeda",
      "currency": "R$",
      "country": "País",
      "dates": "Datas",
      "dateOffer":"Datas em oferta",
      "day": "Dia",
      "days": "Dias",
      "delete": "Excluir",
      "deletedData": "Dado excluído",
      "deletedPhone": "Telefone excluído",
      "deleteFile": "Excluir dado",
      "deletePassaport": "Excluir passaporte",
      "deletePhone": "Excluir telefone",
    "deletedCompanion": "Companheiro excluído",
      "description": "Descrição",
      "detail": "Detalhe",
    "devolution":"Entrega",
      "discounts": "Junte pontos com as suas compras",
      "dolar": "US$",
      "edit": "Editar",
      "editBirthday": "Editar data de nascimento",
      "editCard": "Editar cartão de crédito",
      "editDate": "Editar data",
      "editName":"Editar nomes",
      "editNumber": "Editar número",
      "editSearch": "Modificar busca",
    "end":"Fim",
      "enterEmail": "Digite um e-mail válido",
      "enterPassword": "Ops, digite uma senha",
      "email": "E-mail",
      "errorAction": "Ui, não conseguimos carregar a sua foto :(",
      "errorProvider": "Não conseguimos finalizar",
      "experiences": "Reservas",
      "expiration": "Vencimento",
      "expirationDate": "Data de vencimento",
      "expired":"Vencida",
      "facebook": "Facebook",
    "fem":"Feminino",
      "filter": "Filtrar",
      "finish": "Finalizar",
      "flight": "Voos",
      "free":"Grátis",
      "from": "A partir de ",
      "general": "Geral",
      "gender": "Gênero",
      "getInto": "Entrar",
      "getTerms": "Para continuar, aceite os termos e as condições",
      "google": "Google",
      "have": "Tem",
      "hellowExtr": "Oi, sumido!",
      "hi": "Oi",
      "hiExtr": "Oi, sumido",
      "hide": "Ocultar",
      "hs":"hs",
      "includes": "inclui",
      "ID": "Documento",
      "idType": "Tipo de documento",
      "ilustrativeImg": "Imagem ilustrativa",
      "in": "Em",
      "inconvenient": "Ops!",
      "inconvenientSearch": "Ops! Ocorreu um erro durante a sua busca!",
      "insidePhone":"4003-6257",
      "iReadAccept": "Li e aceito",
      "itineraryConditions": "Por favor, você precisa aceitar o itinerário",
      "landingPlaces": "Assessoria no destino",
      "list": "Pronta",
      "loading": "Carregando",
      "map": "Mapa",
      "max": "Máximo",
      "max2": " Máx.",
    "masc":"Masculino",
      "menu": "Menu",
      "min": "Mínimo",
      "month": "Mês",
      "months": "Meses",
      "more": "Mais",
      "moreRelevant": "Mais relevantes",
      "mustUpdateTitle": "Aplicativo desatualizado",
      "mustUpdate": "Você precisa atualizar seu aplicativo para continuar",
      "nacionality": "Nacionalidade",
      "night": "Noite",
      "nights": "Noites",
      "noConnect": "Parece que há algum problema com a sua conexão. Tente novamente mais tarde. ",
      "notifications": "Notificações",
      "number": "Número",
      "numbers": "Digite 11 números",
      "numbers2": "Digite 7 ou 8 números",
      "of": "De",
      "off": "de desconto",
      "offer": "Ofertas",
      "ok": "Pronto",
      "onlyLetters": "Digite somente letras",
      "onlyNumbers": "Digite somente números",
      "opinions": "Opiniões",
      "optionNoAvailable": "Opção não disponível",
      "or": "Ou você pode",
      "order": "Classificar",
      "orderTitle": "CLASSIFICAR",
      "originNull":"Ops, não voamos para esse destino",
      "ourBranchs": "Nossas agências",
      "outsidePhone":"4003-6257",
      "otherPhones": "Outros telefones",
    "obligatoryField": "Campo obrigatório",
    "obligatoryField2": "Obrigatório",
      "passenger": "Passageiro",
      "passengers": "Passageiros",
      "passaport": "Passaporte",
      "password": "Senha",
      "passwordLenght": "Entre 8 e 16 caracteres",
      "payment": "Pagamento",
      "payment2":"Cartão de crédito usado como garantia",
      "paymentMethod": "Tipo de pagamento",
      "people": "Pessoa",
      "peoples": "Pessoas",
      "phone": "Telefone",
      "phoneType": "Tipo de telefone",
      "phoneCountryCod": "54",
      "phoneCountryCodLength": "Entre 1 e 3 caracteres",
      "phoneAreaCodeLength": "Entre 1 e 4 caracteres",
      "phoneLength": "Entre 5 e 11 caracteres",
      "points": "pontos",
      "price": "Preço",
      "priceAsc": "Preço mais baixo",
      "priceDesc": "Preço mais alto",
      "principal": "Principal",
      "processing": "Processando seu pedido",
      "promotions": "Descontos",
      "privacyPolicy": "Políticas de privacidade",
      "ready": "Pronto",
      "recents": "Recentes",
      "reservation": "Reserva",
      "reservations": "Reservas ",
      "retirement": "Retirada",
      "return": "Retorno",
      "retrying": "Tentar novamente",
      "save": "Salvar",
      "search": "Buscar",
      "searching": "Buscando",
      "seeAll": "Ver todos",
      "seeAll2": "Ver todas",
      "seePromotions": "Ver descontos",
      "services": "Serviços",
      "select": "Selecionar",
      "selected": "Selecionada",
      "send": "Enviar",
      "searchAgain": "Realize uma nova busca",
      "settings": "Ajustes ",
      "several": "Várias",
      "show": "Mostrar",
      "since": "A partir de ",
      "socialMedia": "Redes sociais",
      "start": "Início",
      "termsConditions": "Termos e condições",
      "termsConditions2": "Aceite os termos e condições para poder finalizar a reserva",
      "timeout": "Ops, está demorando muito. \nDê mais uma chance para a gente e tente novamente. ",
    "trips":"Minhas viagens",
      "to": "A",
      "the":"O",
      "type": "Tipo",
      "total": "Total",
      "toThe":"Para",
      "ufa": "Ufa!",
      "understood": "Entendido",
      "unlink": "Desvincular",
      "undo": "Desfazer",
      "until": "Até",
      "update":"Atualizar",
      "upgrade":"Atualizar",
      "upgradeVersion":"Lançamos uma nova versão",
      "upgradeInfo":"Atualize o aplicativo para seguir viajando da forma mais fácil.",
      "validCUIL": "Digite um documento válido",
      "validCUIT": "Digite um documento válido",
      "week": "Semana",
      "weeks": "Semanas",
      "with": "Com",
      "year": "Ano",
      "years": "Anos",
      "accept": "Aceitar",
      "yes": "Sim",
      "no": "Não",
    "whoIsGoingToFly":"Quem vai viajar?",
    "checkPassengers":"Escolha os passageiros",
      "errorApplication": "Ops, ocorreu um erro.",
      "errorApplication2": "Tente novamente em alguns minutos. "
    },
    "home":{
      "hiExtr":"Oi, sumido. ",
      "inspirationExplore":"Inspire-se e explore um destino novo",
      "looking4":"O que você busca?",
      "myReserv":"Minhas reservas",
      "offersTitle":"Não perca essas ofertas!"
    },
    "hotel": {
      "asCard": "Como aparece no cartão de crédito",
      "addRoom": "Adicionar quarto",
      "adult": "Adulto",
      "adults": "Adultos",
      "arrive": "Chego em ",
      "bedDouble": "Cama de casal",
      "bedSimple": "Cama simples",
      "cancellationP": "Política de cancelamento",
      "cancelPolicies": "As condições de cancelamento podem variar segundo o tipo de quarto escolhido. Consulte as condições no detalhe de cada quarto. ",
      "changeRooms": "Trocar quarto",
      "checkIn": "Entrada",
      "checkInFrom": "Entrada: a partir de ",
      "checkOut": "Saída",
      "checkOutFrom": "Saída: até as",
      "child": "Criança",
      "childAge0": "Menor de 1 ano",
      "childAge1": "1 ano",
      "childAge": "Idade do menor",
      "childAge2": "Idade menor",
      "childAge3": "Idade criança",
      "childAgeLimit": "Até 17 anos",
      "childFinish": "Ao finalizar a viagem",
      "childs": "Crianças",
      "dateChoose": "Escolha as datas",
      "discountSelection": "Você escolheu uma opção que tem desconto!",
      "endDate": "Data final",
      "errorToMuchDays": "Sua estadia não pode ser superior a 30 dias. Modifique sua busca e tente novamente. ",
      "errorToMuchPeople": "Adicione mais hóspedes",
      "fastCheckOutAddCard": "Quero usar esse cartão no futuro",
      "fastCOBillingContact": "Adicione novo",
      "guesthouse": "Hóspedes",
      "guesthouse2": "Hóspede",
      "goingTo": "Vou para",
      "hotel": "Hotel",
      "hotelBill": "O hotel também cobrará",
      "hotelBill2": "en concepto de impuesto municipal.",
      "hotels": "Hotéis",
      "hotelChoose": "Escolha seu hotel",
      "hotelName": "Conhece o nome do hotel?",
      "hotelSearch": "Buscar pelo nome do hotel",
      "infoIvaA": "Los residentes colombianos deberán abonar",
      "infoIvaB": "en concepto de IVA directamente en el hotel.",
      "leaveDate": "Vou para",
      "mealPlan": "Plano de refeições",
      "noDisp": "Ui, não há disponibilidade",
      "noMatch": "Sentimos muito, mas não encontramos hotéis disponíveis para a sua busca.",
      "onlyRoom": "Somente quarto",
      "optionalRoomService": "Serviços opcionais de quarto",
      "opinions":"Não há opiniões sobre este hotel",
      "padCharges":"O preço desse quarto",
      "padCharges2":"não inclui",
      "payAtDestination":"Pagamento no hotel",
      "payAtHotel": "no hotel.",
      "payDues":"Pagamento parcelado",
      "paymentMethods":"Meios de pagamento",
      "priceAsc": "Preço do menor ao maior",
      "priceNightRoom": "Preço do quarto por noite",
      "priceNotDiscount":"Preço sem promoção",
      "priceNotDiscount2":"Sem promoção",
      "pricePerNight": "Quarto por noite",
      "pricePerNightIos": "Preço por noite (inclui impostos e taxas)",
      "priceTotal": "Preço por estadia",
      "priceTotal2": "Por estadia",
      "pricePopRefresh": "Ui, o hotel atualizou o preço",
      "promotion": "Promoção:",
      "ranking": "Clasificado en el puesto no.",
      "recentSearchs": "Buscas recentes",
      "recommended": "Hotel recomendado",
      "relevant": "Mais relevantes",
      "room": "Quarto",
      "rooms": "Quartos",
      "roomPerNight": "Quarto por noite",
      "roomPopPrice": "Que legal! O quarto está com o melhor preço!",
      "reservServ": "Serviços inclusos na reserva",
      "restartFilter": "Limpar filtros",
      "restartFilterIos": "Apagar todos os filtros",
      "starAsc": "Menos estrelas",
      "starDesc": "Mais estrelas",
      "stars": "Estrelas",
      "star": "Estrela",
      "startDate": "Data de início",
      "stay": "Estadia",
      "seeHotel": "Ver hotel",
      "selectedRoom": "Quarto selecionado",
      "taxesRates": "Impostos e taxas",
      "taxesRates2":"Impostos e taxas não inclusos",
      "taxesRatesIn": "Inclui impostos e taxas",
      "weSearch1": "Estamos buscando",
      "weSearch2": "o melhor preço para o seu hotel!",
      "HDET_cancelFreeDate": "Cancele grátis a reserva até {{date}}.",
      "HDET_cancelCondition": "Se você cancelar a reserva, não terá reembolso. Uma vez confirmada a reserva, não será possível modificar as datas.",
      "HDET_changeRooms": "Trocar o quarto",
      "hotelDetail": "Detalhe do Hotel",
      "hotelBedsError":"Ui, não há disponibilidade",
      "hotelBedsInfo":"Alguém se adiantou e reservou primeiro. Não se preocupe, temos mais opções.",
      "hotelBedsRoomChange":"Ver outro quarto",
      "hotelBedsBackButton":"Voltar para hotéis"
    },
    "landing": {
      "autumn": "Outono",
      "dailyBudget": "Orçamento diário",
      "hotels": "Hotéis em",
      "ideal": "Ideal para",
      "explore": "Explore",
      "explorer": "Explorar",
      "explorePlace": "Descubra o lugar ideal para você",
      "flights": "Passagens para",
      "miamiFlights": "Passagens para Miami",
      "miamiHotels": "Hotéis em Miami",
      "offers": "Não perca essas ofertas!",
      "recommended": "Recomendações",
      "recommendedStay": "Estadia recomendada",
      "seasson": "Como está o clima?",
      "spring": "Primavera",
      "summer": "Verão",
      "tripInfo": "Informação para a sua viagem",
      "whatToDo": "O que fazer",
      "winter": "Inverno",
      "Li_acuatic": "Aquático",
      "LI_alone": "Somente",
      "LI_beach": "Praia",
      "LI_city": "Cidade",
      "LI_couple": "Dupla",
      "LI_entertainment": "Diversão",
      "LI_exotics": "Exóticos",
      "LI_family": "Família",
      "LI_friends": "Amigos",
      "LI_history": "História",
      "LI_mountain": "Montanha",
      "LI_night": "Noite",
      "LI_shop": "Compras",
      "LI_sports": "Esportes",
      "LI_xsports": "Exportes extremos",
      "LI_walk": "Trekking"
    },
    "login": {
      "accept": "Aceito",
      "acceptb": "Ao se associar você aceita os",
      "accountExist": "Essa conta já existe",
      "accountNotExist": "Essa conta não existe",
      "accountReady": "Já criou a sua conta",
      "accountRegs": "Sua conta está registrada em outro país",
      "birthDate": "Data de nascimento",
      "chooseCountry": "Escolha seu país de residências",
      "confirmEmail": "Garanta que seu e-mail esteja correto",
      "createAccount": "Criar conta",
      "dateInvalidMessage": "Digite uma data de nascimento válida",
      "dateInvalidTitle": "Data de nascimento inválida",
      "enterBirthDate": "Digite sua data de nascimento",
      "enterLastName": "Digite seu sobrenome.",
      "enterName": "Digite seu nome.",
      "enterEmail": "Ops, digite seu e-mail. ",
      "expirationAccount1": "Sua senha expirou. ",
      "expirationAccount2": "Enviamos um e-mail para que você recupere a sua senha e possa acessar a sua conta. ",
      "forgotMyPassword": "Esqueci minha senha",
      "forVerification": "Para fazer a verificação",
      "guestMode": "Continuar como convidado",
      "higher18": "Você precisa ter mais de 18 anos. ",
      "higher18b": "Você precisa ter mais de 18 anos para criar sua conta. ",
      "incorrectCountry": "Sua conta não está registrada no país que você escolheu. Você precisa digitar novamente",
      "lastName": "Sobrenome/s",
      "login": "Iniciar sessão",
      "logOut": "Finalizar sessão",
      "notGetEmail": "O e-mail não chegou?",
      "name": "Nome/s",
      "nameUserIncorrect": "Nome de usuário ou senha incorretos",
      "orSingIn": "Ou você pode entrar com ",
      "passLength": "Digite entre 8 e 16 caracteres",
      "recoverPassSteps": "Com os passos a seguir para recuperá-la",
      "sendEmailBtn": "Reenviar e-mail",
      "signIn": "Entrar",
      "signUp": "Criar conta",
      "toRecoverPass": "Para recuperar a senha, digite seu e-mail",
      "validateAccount": "Valide sua conta para ter acesso a todas as funcionalidades. Depois de validar, reinicie o app. ",
      "validateAccount2": "Verifique a sua conta. ",
      "welcome": "Bem-vindo!",
      "weSendEmail": "Enviamos um e-mail para",
      "wrongUser": "O usuário ou a senha não são válidos. ",
      "yesMyEmail": "Sim, esse é o meu e-mail. "
    },
    "password": {
      "accountDoesntExists": "Essa conta não existe. ",
      "enterNewPassword": "Digite a nova senha. ",
      "enterPassword": "Digite a senha atual. ",
      "invalidPassword": "A senha é inválida",
      "invalidPasswordAccount": "A senha atual está incorreta.",
      "messageInfo": "Sua senha foi modificada com sucesso. "
    },
    "personalData": {
      "enterExpirationDate":"Digite uma data de vencimento. ",
      "enterName": "Digite um nome. ",
      "enterLastName": "Digite um sobrenome. ",
      "enterBirthDate": "Digite uma data de nascimento. ",
      "enterGender": "Digite um gênero. ",
      "enterDocumentNumber": "Digite um documento de identidade. ",
      "enterDocumentType": "Digite um tipo de documento. ",
      "enterPassport": "Digite um passaporte. ",
      "higher18": "Você precisa ter mais de 18 anos. ",
      "invalidExpirationDate": "A data não pode ser anterior a data atual. "
    },
    "phone": {
      "addPhone": "Adicionar telefone",
      "areaCod": "Cód. de área",
      "countrieCod": "Cód. de país",
      "enterCountryCod": "Digite o código de país",
      "FAX": "Fax",
      "LAND": "Particular",
      "MOBILE": "Celular"
    },
    "profile": {
      "alreadyVerify": "Já verificamos a sua conta",
      "billingDataInfo": "Você ainda não adicionou nenhuma informação de cobrança. Adicione-os para comprar de forma mais fácil e rápida. ",
      "companions": "Companheiros de viagem",
      "choosePic": "Escolha uma foto",
      "id": "Documento de identidade",
      "idNumber": "Este é o número do seu documento?",
      "idNumber2": "Tenha em mente que não poderá editá-lo.",
      "issuingCountry": "País emissor",
      "linkFacebook": "Vincular com Facebook",
      "linkGoogle": "Vincular com Google",
      "makePic": "Tirar uma foto",
      "myAccount": "Minha conta",
      "nameBussinesName": "Nome / Razão Social",
      "newPassword": "Nova senha",
      "notVerify": "Sem verificar",
      "noVouchersA": "Você ainda não tem vouchers para mostrar",
      "noVouchersB": "Aqui você só verá suas reservas para passagens, hotéis, carros e seguro viagem.",
      "personalData": "Dados pessoais",
      "profile": "Perfil",
      "sendEmail": "Reenviar e-mail de validação",
      "sendEmailInfo1": "Enviamos um e-mail para",
      "sendEmailInfo2": "Para que confirme sua identidade. Se já fez a validação, reinicie seu app. ",
      "sendEmailInto3": "Pode levar alguns minutos até que o e-mail chegue na sua caixa. ",
      "sendEmailInfo4": "Reenviar e-mail de verificação",
      "unlinkMsg": "Se você desvincular a sua conta, precisará de uma senha para acessar a sua conta. ",
      "unlinkFacebook": "Desvincular Facebook",
      "unlinkGoogle": "Desvincular Google+",
      "whoIs": "{{name}}, é você?"
    },
    "travelMates":{
      "addMsg":"Adicione quem quiser viajar com você e associe-los a sua conta. ",
      "deleteTravelMates":"Excluir companheiros de viagem",
      "travelMates":"Companheiros de viagem",
      "infoTMModal":"Adicione em seu perfil e, nas próximas compras, a finalização será mais rápida.",
      "choose":"Escola um passageiro",
      "complete":"Complete os formulários mais rápido",
      "invalidBirthDate":"A data não pode ser posterior a data atual"
    },
    "offers": {
      "notFindOffers": "Não há ofertas disponíveis",
      "multiTripTitle": "Conheça vários destinos ao preço de um",
      "singleTripTitle": "Os melhores preços para as suas passagens"
    },
    "reservations": {
      "ageLimit": "Sem limite de idade",
      "airlineCase":"Consulta com a companhia aérea",
      "assistIsurance": "Assist Card",
      "almundoCode": "Código de identificação Almundo.com",
      "allDestinations": "Todos os destinos internacionais",
      "aumotaticTransmission": "Caixa automático",
      "buyCode": "Código de compra",
      "cancelledResr": "Reserva cancelada",
      "car": "Carro",
      "conditionitedAir": "Ar condicionado",
      "cantShowRes": "Algo aconteceu e não conseguimos mostrar suas reservas. Tente novamente em alguns minutos.",
      "carsInfo1": "Para retirar o carro, ",
      "carsInfo2": "imprima o voucher que chegou no seu e-mail. ",
      "carsInfo3": "Lembre-se que o condutor precisa apresentar sua carteira de habilitação válida e um cartão de crédito em seu nome. ",
      "codeEntry": "Código ingresso",
      "codeRetirement": "Código de retirada",
      "contact": "Contato de emergência",
      "coverage2": "Cobertura",
      "coverage": "De cobertura",
      "coverageAmount": "Valor de cobertura",
      "duration": "Duração",
      "especialCoverage": "Cobertura especial",
      "healthInsurance": "Seguro viagem",
      "infoA":"Você só verá suas reservas de",
      "infoB":"passagens, hotéis e carros.",
      "leasingCar": "Aluguel por",
      "luggage": "Bagagem permitida",
      "pass": "Ingressos",
      "regime": "Regime",
      "reservCode": "Código de reserva Almundo.com",
      "retirementOffice": "Agência de retirada",
      "returnOffice": "Agência de devolução",
      "saveUsed": "Salvar em usadas",
    "seeReservation": "Ver reservas",
      "sendBill": "Enviar fatura por e-mail",
      "sendBillUndoBar": "Enviamos a fatura para",
      "sendVoucherUndoBar": "Enviamos o voucher para ",
      "sendVoucher": "Enviamos o voucher por e-mail",
      "titularRes": "Titular da reserva",
      "validity": "Vigência",
      "voucher": "Voucher",
      "voucherTitle": "Este voucher não é válido como credencial",
      "voucherInfo": "Caso você precise de assistência, ligue previamente para os telefones de contato da Assist Card",
      "voucherInfo2": "que estão no voucher enviado para o seu e-mail.",
      "webCheckIn": "Web check-in",
      "webCheckCode": "Código web check-in",
      "RF_infoA": "Revise os requisitos, documentos e restrições migratórias",
      "RF_infoB": "do destino final e de cada escala",
      "deleteTitle": "Reserva cancelada",
      "deleteMsg": "Você quer eliminar a reserva?",
      "usedTitle": "Você não verá a reserva",
      "usedMsg": "Você poderá checá-la em Reservas usadas, em Minha conta, na página web",
      "errorCustomizeReserveUsed": "Não pudemos salvar suas reservas em usadas. Tente novamente em alguns minutos",
      "errorCustomizeReserveDeleted": "Não pudemos salvar suas reservas em usadas. Tente novamente em alguns minutos",
      "cancelPoliciesInfo": "Revise as políticas de cancelamento do voucher que foi enviado para o seu e-mail. "
    },
    "settings": {
      "aboutApp": "Sobre o aplicativo",
      "appOpinion": "O que você acha do app?",
      "liveFeedBack": "Deixar opinião",
      "rateApp": "Classificar app",
      "version": "Almundo.com.br - Versão"
    },
    "vr": {
      "almundoVR": "Almundo VR",
      "cardBoard": "Use seu cartão",
      "cardBoardSub": "Ative o botão no canto interior direito e aproveite Almundo VR",
      "discoverVr": "Descubra um destino ou uma experiência com nossos vídeos e conheça melhor o seu destino antes mesmo de viajar. ",
      "downloadedVr": "Vídeo baixado",
      "downloadVideo": "Baixar vídeo",
      "enterDest": "Digite um destino",
      "seeNow": "Ver agora",
      "see360": "Veja o vídeo em 360",
      "swipe": "Deslize a tela com o dedo para ver todos os ângulos. ",
      "vWorld": "Levamos você para o mundo virtual",
      "vrCat_adventure": "Esportes e aventura",
      "vrCat_beach": "Sol + Praia",
      "vrCat_city": "Cidades do mundo",
      "vrCat_culture": "Cultura e tradição",
      "vrCat_food": "Sabores regionais",
      "vrCat_nature": "Pura natureza",
      "vrCat_walk": "Passeios encantadores",
      "vrCat_relax":"Relax infinito"
    },
    "wallet": {
      "addCard": "Adicionar cartão de crédito",
      "amexValidCardNumbers": "O nº do cartão deve conter 15 caracteres",
      "validCardNumbers": "O nº do cartão deve conter 16 caracteres.",
      "validCardNumbers2": "O nº do cartão deve conter 15 caracteres.",
      "numericChars": "Usar somente números.",
      "deletedCard": "Cartão excluído.",
      "invalidExpiration": " O vencimento não pode ser anterior a data atual",
      "titularName": "como aparece no cartão",
      "wallet": "Carteira",
      "walletEmpty": "Sua carteira ainda está vazia",
      "walletEmptyInfo": "Adicione seus cartões de crédito para pagar por suas compras de forma mais rápida e fácil. "
  },
  "trips": {
    "addTrip":"Criar viagem",
    "address": "Endereço",
    "addressOptional": "Endereço (opcional)",
    "myTripsHeader":"Minhas viagens",
    "addTripsHeader":"Criar viagem",
    "editTripsHeader":"Editar viagem",
    "day": "Dia",
    "delete": "Excluir",
    "deleteEventAns":"Você quer excluir {{trip}}?",
    "activity": "Atividade",
    "addBy": "Adicionado por",
    "addActivity":"Você adicionou",
    "deleteEvent":"Eliminar evento",
    "done": "Realizados",
    "emptyTripsTitle":"Vontade de viajar?",
    "emptyTripsText":"Comece a organizar a sua próxima viagem",
    "moveToDone": "Enviar para realizados",
    "tripDetail":"Detalhe",
    "addEvent":"Adicionar Evento",
    "event": "Evento",
    "addReserveOrEvent": "Adicionar reserva ou evento",
    "searchEvent":"Buscar em Almundo",
    "tripReservation":"Tenho uma Reserva",
    "favourites":"favoritos",
    "itinerary":"itinerário",
    "customEvent":"Evento personalizado",
    "customEvent2": "Evento personalizado",
    "next": "Próximos",
    "owner": "Criado por",
    "startTrip":"Comece hoje a planejar suas viagens!",
    "logginAccountInfo":"Mas, antes, precisamos que você tenha uma conta, para poder salvar seus itinerários.",
    "tripOrigin":"De onde sair? (opcional)",
    "verifyEmailTrips":"Você poderá organizar suas viagens mas, antes, precisamos que você verifique a sua conta. Enviamos um e-mail para ",
    "whereGo":"Para onde você vai?",
    "nameTrip": "Nome da viagem",
    "hotelEventDetailTitle":"Seu hotel",
    "hotelEventStayDays":"Estadia",
    "hotelEventNight":"noites",
    "hotelEventCheckIn":"Entrada",
    "hotelEventCheckOut":"Saída",
    "CarEventDetailTitle":"Seu carro",
    "tripDestination": "Para onde você quer ir?",
    "tripName": "Nome da viagem",
    "persons": "Pessoas",
    "minor": "criança",
    "minors": "crianças",
    "toThe": "A",
    "invalidTotalPassengersNotificationMessage": "Ops, você pode selecionar até 9 pessoas por viagem.",
    "FlightEventDetailTitle":"Seu voo",
    "insuranceEventDetailTitle":"Seu seguro",
    "othersEventTitle":"Seu evento",
    "eventOwner":"Adicionado por",
    "tripSearch":"Digite um destino",
    "adult":"adulto",
    "adults":"adultos",
    "child":"criança",
    "children":"crianças",
    "passengers":"passageiros",
    "moveToOtherTrip": "Mover para outra viagem",
    "createTripWithYourProductMessage": "Cria uma viagem com seu {{product}}, para que você possa planejar sua visita em um só lugar. ",
    "newReservationMessageLoggedIn": "Criamos uma {{trip}} para que você possa planejar sua visita em um só lugar. ",
    "reservationMessage": "Seu {{product}} foi adicionado em {{trip}}. Continue planejando sua viagem em um mesmo lugar!",
    "search": "Buscar em Almundo",
    "reservePay": "Estamos processando o pagamento dessa reserva.",
    "moveToDoneConfirmationMessage": "Você quer enviar a viagem para realizados?",
    "deleteConfirmationMessage": "Você quer eliminar a viagem?",
    "deleteTrip": "Eliminar viagem",
    "hasBeenDeletedYourTrip": "Você eliminou a sua viagem",
    "hasBeenSentYourTripToDone": "Você enviou a sua viagem para realizados",
    "hasBeenCreatedYourTrip": "Você criou  sua viagem",
    "tripOutOfDate": "Modifique a data. O período que você escolheu deixa um evento fora da sua viagem. ",
    "flightsEnter": "Partida de ",
    "flightsLeave": "Chegada a ",
    "carsEnter": "Retirada de ",
    "carsLeave": "Entrega de ",
    "hotelsEnter": "Entrada em ",
    "hotelsLeave": "Saída de",
    "otherEnter": "Início de",
    "otherLeave": "Fim de ",
    "tripPlanning": "Planeje sua viagem dia por dia",
    "tripCharge": "Carregue todas as suas reservas e atividades.",
    "dateOutOfRange": "O período que você escolheu deixará um evento fora da sua viagem",
    "modifyDate": "Modifique a data",
    "name": "Nome",
    "tripDescription": "Descrição (opcional)",
    "initHour": "Hora de início",
    "endHour": "Hora de término",
    "optionalReserveCode": "Código de reserva (opcional)",
    "goingTo": "Chego em ",
    "flightType": "Tipo de voo",
    "operatingAirline": "Companhia aérea (opcional)",
    "flightNumber": "Número do voo (opcional)",
    "flightGoingTo": "Voo de ida",
    "flightComingBack": "Voo de volta",
    "flightDateReturn": "Data de chegada",
    "tripStartDate": "Data de início",
    "tripEndDate": "Data de fim",
    "company": "Companhia (opcional)",
    "pickUpLocation": "Local de retirada",
    "dropOffLocation": "Local de entrega",
    "nameOfHotel": "Nome do hotel",
    "destination": "Destino",
    "hotelCheckInDate": "Data de entrada",
    "hotelCheckOutDate": "Data de saída",
    "hotelCheckInTime": "Hora de entrada",
    "hotelCheckOutTime": "Hora de saída",
    "date": "Data",
    "hour": "Hora",
    "insuranceName": "Nome do seguro",
    "local": "Local",
    "customTripOutOfDate": "Ops, a data de saída é posterior a data de chegada."
  }
}