<?xml version="1.0" encoding="iso-8859-1"?>
<!-- Generator: Adobe Illustrator 16.0.0, SVG Export Plug-In . SVG Version: 6.00 Build 0)  -->
<!DOCTYPE svg PUBLIC "-//W3C//DTD SVG 1.1//EN" "http://www.w3.org/Graphics/SVG/1.1/DTD/svg11.dtd">
<svg version="1.1" xmlns="http://www.w3.org/2000/svg" xmlns:xlink="http://www.w3.org/1999/xlink" x="0px" y="0px" width="128px"
	 height="128px" viewBox="0 0 128 128" style="enable-background:new 0 0 128 128;" xml:space="preserve">
<g id="_x31_07-flying">
	<path style="fill:#59595C;" d="M40.798,119.1H52.4l29-46.4h31.901c4.813,0,8.699-3.885,8.699-8.699
		c0-4.813-3.886-8.699-8.699-8.699H81.399L52.4,8.9H40.799l14.502,46.4l-31.901,0l-8.701-11.6H6L11.798,64L6,84.299h8.698
		l8.701-11.6h31.901L40.798,119.1z"/>
</g>
<g id="Layer_1">
</g>
</svg>
