<?xml version="1.0" encoding="iso-8859-1"?>
<!-- Generator: Adobe Illustrator 16.0.0, SVG Export Plug-In . SVG Version: 6.00 Build 0)  -->
<!DOCTYPE svg PUBLIC "-//W3C//DTD SVG 1.1//EN" "http://www.w3.org/Graphics/SVG/1.1/DTD/svg11.dtd">
<svg version="1.1" xmlns="http://www.w3.org/2000/svg" xmlns:xlink="http://www.w3.org/1999/xlink" x="0px" y="0px" width="128px"
	 height="128px" viewBox="0 0 128 128" style="enable-background:new 0 0 128 128;" xml:space="preserve">
<g id="_x31_19-chat">
	<path style="fill-rule:evenodd;clip-rule:evenodd;fill:#5D5D5D;" d="M86.51,70c3.092,0,5.49-2.911,5.49-6.003V13.367
		C92,10.274,89.602,8,86.51,8H13.378C10.284,8,7,10.274,7,13.367v78.756L30.255,70H86.51z M114.636,31H104v50H31v11.123
		C31,95.217,32.787,97,35.88,97h61.878L120,120.25V35.87C120,32.777,117.729,31,114.636,31z"/>
</g>
<g id="Layer_1">
</g>
</svg>
