<?xml version="1.0" encoding="iso-8859-1"?>
<!-- Generator: Adobe Illustrator 16.0.0, SVG Export Plug-In . SVG Version: 6.00 Build 0)  -->
<!DOCTYPE svg PUBLIC "-//W3C//DTD SVG 1.1//EN" "http://www.w3.org/Graphics/SVG/1.1/DTD/svg11.dtd">
<svg version="1.1" xmlns="http://www.w3.org/2000/svg" xmlns:xlink="http://www.w3.org/1999/xlink" x="0px" y="0px" width="128px"
	 height="128px" viewBox="0 0 128 128" style="enable-background:new 0 0 128 128;" xml:space="preserve">
<g id="_x34_3-arrival">
	<path style="fill:#5E5F5E;" d="M18.072,69.228l34.212,4.023l28.017,3.229l34.213,3.963c5.155,0.578,9.8-3.085,10.439-8.244
		c0.578-5.149-3.087-9.806-8.25-10.438L82.5,57.797L57.172,4.402L44.747,3l7.544,51.323l-32.016-3.717l-7.876-13.534l-9.35-1.094
		l4.71,32.046L18.072,69.228z M3,118h122v-12H3V118z"/>
</g>
<g id="Layer_1">
</g>
</svg>
