<?xml version="1.0" encoding="iso-8859-1"?>
<!-- Generator: Adobe Illustrator 16.0.0, SVG Export Plug-In . SVG Version: 6.00 Build 0)  -->
<!DOCTYPE svg PUBLIC "-//W3C//DTD SVG 1.1//EN" "http://www.w3.org/Graphics/SVG/1.1/DTD/svg11.dtd">
<svg version="1.1" xmlns="http://www.w3.org/2000/svg" xmlns:xlink="http://www.w3.org/1999/xlink" x="0px" y="0px" width="128px"
	 height="128px" viewBox="0 0 128 128" style="enable-background:new 0 0 128 128;" xml:space="preserve">
<g id="_x36_1-offer">
	<path style="fill:#5C5C5C;" d="M125,63.973l-13.528-15.418l1.885-20.405l-20.021-4.549L82.856,5.968L64,14.063L45.143,5.968
		L34.665,23.601l-20.021,4.495l1.885,20.405L3,63.973l13.528,15.418l-1.885,20.46l20.021,4.549l10.479,17.633L64,113.882
		l18.856,8.097l10.479-17.633l20.021-4.55l-1.885-20.405L125,63.973z M70,92H58V81h12V92z M70,70H58V36h12V70z"/>
</g>
<g id="Layer_1">
</g>
</svg>
