<?xml version="1.0" encoding="iso-8859-1"?>
<!-- Generator: Adobe Illustrator 16.0.0, SVG Export Plug-In . SVG Version: 6.00 Build 0)  -->
<!DOCTYPE svg PUBLIC "-//W3C//DTD SVG 1.1//EN" "http://www.w3.org/Graphics/SVG/1.1/DTD/svg11.dtd">
<svg version="1.1" xmlns="http://www.w3.org/2000/svg" xmlns:xlink="http://www.w3.org/1999/xlink" x="0px" y="0px" width="128px"
	 height="128px" viewBox="0 0 128 128" style="enable-background:new 0 0 128 128;" xml:space="preserve">
<g id="_x36_7-check">
	<path style="fill:#5C5C5C;" d="M111.444,3H16.556C9.033,3,3,9.099,3,16.556v94.889C3,118.897,9.033,125,16.556,125h94.889
		c7.52,0,13.556-6.103,13.556-13.556V16.556C125,9.099,118.964,3,111.444,3z M50.444,97.889L16.556,64l9.558-9.558l24.331,24.265
		l51.442-51.442l9.558,9.624L50.444,97.889z"/>
</g>
<g id="Layer_1">
</g>
</svg>
