<?xml version="1.0" encoding="iso-8859-1"?>
<!-- Generator: Adobe Illustrator 16.0.0, SVG Export Plug-In . SVG Version: 6.00 Build 0)  -->
<!DOCTYPE svg PUBLIC "-//W3C//DTD SVG 1.1//EN" "http://www.w3.org/Graphics/SVG/1.1/DTD/svg11.dtd">
<svg version="1.1" xmlns="http://www.w3.org/2000/svg" xmlns:xlink="http://www.w3.org/1999/xlink" x="0px" y="0px" width="128px"
	 height="128px" viewBox="0 0 128 128" style="enable-background:new 0 0 128 128;" xml:space="preserve">
<g id="_x37_4-add">
	<path style="fill:#5C5C5C;" d="M64,3C30.331,3,3,30.328,3,64c0,33.669,27.331,61,61,61s61-27.331,61-61C125,30.328,97.669,3,64,3z
		 M94.5,70.1H70.1v24.4H57.9V70.1H33.5V57.9h24.4V33.5H70.1v24.4h24.4V70.1z"/>
</g>
<g id="Layer_1">
</g>
</svg>
