<?xml version="1.0" encoding="iso-8859-1"?>
<!-- Generator: Adobe Illustrator 16.0.0, SVG Export Plug-In . SVG Version: 6.00 Build 0)  -->
<!DOCTYPE svg PUBLIC "-//W3C//DTD SVG 1.1//EN" "http://www.w3.org/Graphics/SVG/1.1/DTD/svg11.dtd">
<svg version="1.1" xmlns="http://www.w3.org/2000/svg" xmlns:xlink="http://www.w3.org/1999/xlink" x="0px" y="0px" width="128px"
	 height="128px" viewBox="0 0 128 128" style="enable-background:new 0 0 128 128;" xml:space="preserve">
<g id="_x38_0-time">
	<path style="fill:#5C5C5C;" d="M63.94,3C30.271,3,3,30.328,3,64c0,33.669,27.271,61,60.94,61C97.669,125,125,97.669,125,64
		C125,30.328,97.669,3,63.94,3z M64,112.8c-26.961,0-48.8-21.838-48.8-48.8c0-26.961,21.838-48.8,48.8-48.8
		c26.962,0,48.8,21.838,48.8,48.8C112.8,90.962,90.962,112.8,64,112.8z M64,34h-6v36.1l31.975,19.218L93,81.812L64,65.525V34z"/>
</g>
<g id="Layer_1">
</g>
</svg>
