<?xml version="1.0" encoding="iso-8859-1"?>
<!-- Generator: Adobe Illustrator 16.0.0, SVG Export Plug-In . SVG Version: 6.00 Build 0)  -->
<!DOCTYPE svg PUBLIC "-//W3C//DTD SVG 1.1//EN" "http://www.w3.org/Graphics/SVG/1.1/DTD/svg11.dtd">
<svg version="1.1" xmlns="http://www.w3.org/2000/svg" xmlns:xlink="http://www.w3.org/1999/xlink" x="0px" y="0px" width="128px"
	 height="128px" viewBox="0 0 128 128" style="enable-background:new 0 0 128 128;" xml:space="preserve">
<g id="_x38_3-billing">
	<path style="fill:#59595C;" d="M76.2,3H27.4c-6.708,0-12.14,5.489-12.14,12.2l-0.06,97.6c0,6.708,5.433,12.2,12.14,12.2H100.6
		c6.708,0,12.4-5.492,12.4-12.2V39.6L76.2,3z M88,101H40V88h48V101z M88,76H40V64h48V76z M70,46V12.15L103.65,46H70z"/>
</g>
<g id="Layer_1">
</g>
</svg>
