<?xml version="1.0" encoding="iso-8859-1"?>
<!-- Generator: Adobe Illustrator 16.0.0, SVG Export Plug-In . SVG Version: 6.00 Build 0)  -->
<!DOCTYPE svg PUBLIC "-//W3C//DTD SVG 1.1//EN" "http://www.w3.org/Graphics/SVG/1.1/DTD/svg11.dtd">
<svg version="1.1" xmlns="http://www.w3.org/2000/svg" xmlns:xlink="http://www.w3.org/1999/xlink" x="0px" y="0px" width="128px"
	 height="128px" viewBox="0 0 128 128" style="enable-background:new 0 0 128 128;" xml:space="preserve">
<g id="_x39_0-add-person">
	<path style="fill:#59595C;" d="M47,53H31V36H20v17H3v11h17v17h11V64h16V53z M80.637,64c12.255,0,22.182-9.927,22.182-22.182
		s-9.927-22.182-22.182-22.182c-12.256,0-22.182,9.927-22.182,22.182S68.381,64,80.637,64z M80.5,75.091
		c-14.807,0-44.5,7.43-44.5,22.182V108h89V97.272C125,82.521,95.306,75.091,80.5,75.091z"/>
</g>
<g id="Layer_1">
</g>
</svg>
