  {
    "addMealPlan":{
      "addMealPlan":"Agregar plan de comidas"
    },
    "addTicket":{
      "addTicket":"Agregar pase"
    },
    "billing": {
      "enterName": "Ingresa un Nombre.",
      "enterFiscalCondition": "Ingresa una Situación fiscal.",
      "enterDocumentType": "Ingresá un Tipo.",
      "enterDocumentNumber": "Ingresa un Documento.",
      "enterStreet": "Ingresa un Domicilio.",
      "enterNumber": "Ingresa un Número.",
      "enterZipCode": "Ingresa un Cód postal.",
      "enterProvince": "Ingresa una Provincia.",
      "enterCity": "Ingresa una Ciudad.",
      "invalidDocumentPerson": "El Documento debe pertenecer a una persona física o legal.",
      "deletedBilling": "Dato eliminado",
      "number":"Número",
      "infoDocumentNumber":"Sin espacios, ni guiones",
      "validNit": "Ingrese un NIT valido"
    },
    "car": {
      "driver": "Conductor"
    },
    "checkout": {
      "addBillingError":"No pudimos guardar los datos de facturación",
      "addCardToWalletError":"No pudimos agregar la tarjeta a tu cartera.",
      "addSecure": "¿Quieres agregar un seguro de viaje?",
      "addSecureOk": "Sí, quiero agregar un seguro por",
      "adultPrice": "Precio por adulto",
      "almostDone": "¡Ya casi terminas!",
      "backButtonTitle": "Ups, no es posible regresar a la pagina anterior.",
      "backButtonMsgLoggedIn":"Ups, no es posible regresar a la pagina anterior.",
      "backButtonMsgLoggedOut": "Ups, no es posible regresar a la pagina anterior.",
      "billData": "Datos de facturación",
      "birdthDateValidation": "Verifica la fecha de nacimiento seleccionada.",
      "bonus": "Tu tarjeta te bonificó ",
      "bonusInfo1": "Precio bonificado en 1 mes.",
      "bonusInfo2": "La bonificación podría disminuir para pagos en más cuotas.",
      "buyConfirm": "Confirmación de compra",
      "buyFor": "Comprar por",
    "car": "Auto",
      "cardData": "Datos de la tarjeta",
      "contactData": "Datos de contacto",
      "cancelPolicies": "Política de cancelación",
      "cardWithoutBank": "{{cardName}} todos los bancos",
      "CFT": "CFT",
      "chargeMsg": "Tu tarjeta recarga",
      "chkTermsConditions": "Términos y condiciones y las Políticas de Privacidad.",
      "checkData": "Revisa que los datos ingresados sean correctos.",
      "cober": "Cobertura completa",
      "due": "Cuota",
      "dues": "Meses",
      "duesB": "¡Hasta {{dues}} cuotas!",
      "duesC": "Hasta {{dues}} cuotas con recargo",
      "eTicket": "E-ticket",
      "eTicketInfoA": "Cuando se acredite el pago verás tu voucher en “Reservas”.",
      "eTicketInfoB": "También te enviaremos un e-mail con los detalles de la reserva.",
      "eTicketInfoAGuest": "Te enviaremos un e-mail con los detalles de la reserva.",
      "eTicketInfoBGuest": "Inicia sesión y guarda tus tickets y vouchers.",
      "flat": "Departamento",
      "flatB": "Dpto.",
    "flight": "Vuelo",
      "financialCost": "Costo financiero",
      "finishBuy": "Finaliza tu compra",
      "fiscalInfo": "Por disposición de la AFIP, la factura tiene que ser emitida",
      "fiscalInfoBold": "A nombre de la persona que realiza el pago.",
      "fiscalName": "Nombre / Razón social",
      "fiscalSituation": "Situación fiscal",
      "fixedCancelPolicy": "Cancela la reserva desde el {{to}} y paga {{currency}} {{amount}}.",
      "fixedCancelPolicy2": "Si cancelas la reserva entre el {{from}} y el {{to}} tienes un recargo de {{currency}} {{amount}}",
      "floor": "Piso",
      "freeCancelPolicy": "Cancela gratis la reserva hasta el {{date}} inclusive.",
      "foreignBuy": "Para comprar vuelos que no salgan de México, llama al",
      "foreignBuy2": "O acércate a",
      "foreignBuyPhone": "01 800 253 0498",
      "howToPay": "¿Cómo vas a pagar?",
      "handlingFees": "Cargos de gestión",
    "insurance": "Seguro",
      "interests": "Intereses",
    "itemMoved": "El {{productType}} fue movido a {{tripName}}.",
      "holderDocumentType":"Tipo de documento",
      "holderDocumentNumber":"Número de documento",
    "hotel": "Hotel",
      "likeId": "Como figura en el documento de viaje",
      "moreCancelPolicies": "Más opciones de cancelación",
      "nightCancelPolicy": "Si cancelas la reserva hasta el {{to}} inclusive, tienes un recargo de una noche.",
      "nightCancelPolicy2": "Si cancelas la reserva entre el {{from}} y el {{to}} inclusive pagas el costo equivalente a 1 noche.",
      "nightsCancelPolicy": "Si cancelas la reserva hasta el {{to}} inclusive pagas el costo equivalente a {{nights}} noches.",
      "nightsCancelPolicy2": "Si cancelas la reserva entre el {{from}} y el {{to}} inclusive pagas el costo equivalente a {{nights}} noches.",
      "noSpace": "Sin espacios ni guiones",
      "notPromotion": "Sin bonificación",
      "offersPromos": "Quiero recibir ofertas y promociones para mi próximo viaje.",
      "pay": "Vas a pagar ",
      "paymentInfo": "Vas a pagar tu estadía en el hotel.",
      "paymentInfo2": "La tarjeta será utilizada como garantía de tu reserva.",
      "passangers": "¿Quiénes van a viajar?",
      "percentualCancelPolicy": "Cancela la reserva desde el {{to}} y paga el {{percentage}}% del total.",
      "percentualCancelPolicy2": "Si cancelas la reserva entre el {{from}} y el {{to}} inclusive pagas el {{percentage}}% del total.",
      "postCode": "Cód postal",
      "postCode2": "Código postal",
      "priceWithBonus": "Total con bonificación",
      "pricePerPerson": "Precio por persona",
      "pricePerPassen": "Precio por pasajero",
      "product": "Producto",
      "quota": "1 mes",
      "quotasCount": "{{quotas}} meses",
      "quotes": "meses sin interés",
      "reservCode": "Código de reserva",
      "reservCodeInfo": "La acreditación del pago aún está pendiente.",
      "reservCodeInfo2":"Cuando se acredite tu pago vas a poder consultar los detalles de tu compra en",
      "reservCodeInfo2b":"También te enviaremos un e-mail con esta información.",
      "reservCodeInfoNotLog":"Cuando se acredite tu pago, te enviaremos un e-mail con esta información.",
      "reservCodeInfoNotLog2":"Inicia sesión y guardá tus tickets y vouchers.",
      "scanCard": "Puedes escanear tu tarjeta. ¡Es más fácil!",
      "secureCodeToolTip": "Son 3 números que están en el dorso de tu tarjeta.",
      "secureCodeAmexToolTip": "Son 4 números que están en el frente de tu tarjeta.",
      "securityNumber": "Código de seguridad",
      "seeCober": "Ver cobertura completa",
      "seeReservation": "Reservas",
      "sendTicket": "¿A quién le enviamos el voucher?",
      "sendBill": "¿A quién le enviamos la factura?",
      "sendBills": "¿A quién le enviamos tus facturas?",
      "state": "Estado",
      "summaryCheckItineraryBox": "Estoy de acuerdo con el itinerario, cantidad de pasajeros y tarifa.",
      "summaryModalTitle": "Confirma tu compra",
      "summaryModalConfirm": "Confirmo",
      "summaryModalCancel": "Cancelar",
      "TEA": "TEA",
      "thanksForChoose": "¡Gracias por elegirnos!",
      "thanksForChoose2": "Gracias por elegirnos",
      "titularName": "Nombre del titular",
      "totalTariff": "Tarifa total",
      "totalToPay": "Total a pagar",
      "totalPrice": "Precio total",
      "useMyData": "Usar mis datos",
    "useMyAccountData": "Usar datos de mi cuenta",
      "useMyBillData":"Quiero usar este dato en el futuro",
      "whereIFind": "¿Dónde lo encuentro?",
      "with": "Con",
      "withPromotion": "Con Promoción",
      "withoutRefuond": "Si cancelas la reserva no tiene reembolso. Una vez confirmada la reserva no puedes modificar las fechas."
    },
    "checkoutError": {
      "accountUpsertErrorTitle": "Ups, algún dato está incorrecto",
      "accountUpsertError": "Revisa todos los datos y vuelve a intentar.",
      "apiKeyRequired": "Ups, tuvimos un error. Vuelve a intentar en unos minutos.",
      "armError": "Ups, tuvimos un error. Vuelve a intentar en unos minutos.",
      "armIDerror": "Ups, tuvimos un error. Vuelve a intentar en unos minutos.",
      "cancelError": "Ups, tuvimos un error.",
      "cancelError2": "Vuelve a intentar en unos minutos.",
      "cartAlreadyReserved": "Ups, lo que buscabas ya no está disponible. No te preocupes, tenemos más opciones.",
      "creditCardEncrypted": "Ups, tuvimos un error. Vuelve a intentar en unos minutos.",
      "creditCardErrorMessage": "Revísalos y vuelve a intentar.",
      "creditCardErrorMessageTitle": "Algún dato de la tarjeta es incorrecto",
      "creditCardDecryption": "Ups, tuvimos un error. Vuelve a intentar en unos minutos.",
      "creditCardProcessing": "Ups, tuvimos un error. Vuelve a intentar en unos minutos.",
      "duplicatePnrModalTitle":"Ups, ya reservaste el vuelo",
      "duplicatePnrModal": "Revisa tu casilla de e-mail o llámanos al 01 800 253 0498 para conocer los detalles del vuelo.",
      "expiredPolicyInPaymentMethod": "Vuelve a probar con otra combinación de banco, tarjeta o meses.",
      "fopNotFound": "Vuelve a probar con otra combinación de banco, tarjeta o meses.",
      "fopNotFoundTitle":"Ese medio de pago ya no está disponible",
      "genericErrorFlight":"El vuelo ya no está disponible.\nNo te preocupes, tenemos más opciones",
    "insuranceError": "Ups, algo pasó al reservar el seguro de viaje. Intenta nuevamente.  ",
    "insuranceError2": "Ups, algo pasó al reservar el seguro de viaje. Intenta nuevamente.  ",
    "invalidBinValidation": "El número de la tarjeta no coincide con el banco que elegiste.",
    "invalidBinValidationTitle": "Ups, hubo un problema con la tarjeta",
    "invalidBirthDate": "Ups, hay un error en la fecha de nacimiento.",
    "invalidCreditCardAlgorithm": "Ups, hay un error en algún número de tu tarjeta.",
    "invalidCreditCardBrandValidation": "El número de la tarjeta no coincide con el banco que elegiste.",
    "invalidCreditCardNumber": "Hay un error en algún número de tu tarjeta.",
    "invalidDocumentExpirationDate": "Ups, hay un error en la fecha de vencimiento del pasaporte.",
    "invalidPassengerAge": "Revisa la fecha de nacimiento de los pasajeros o modifica la búsqueda.",
    "invalidPromoMessage": "El número de la tarjeta no coincide con el banco que elegiste.",
    "invalidTelephoneNumber": "Ups, hay un error en el número de teléfono.",
    "passengerNameTooLongErrorMessage": "Omite el segundo nombre o el último apellido de los pasajeros y vuelve a intentar.",
    "passengerNameTooLongErrorMessageTitle": "El nombre de uno o más pasajeros es muy largo",
    "passengerPassportRequired": "Ups, faltó cargar el pasaporte de uno o más pasajeros.",
      "priceDiferenceFlight":"El vuelo cambió de precio.",
      "priceFlight":"El vuelo ya no está disponible.\nAlguien se adelantó y reservó primero. No te preocupes, tenemos más opciones.",
    "productBookingerror":"Ups, este {{product}} no está disponible",
    "productBookingerror2": "No pudimos hacer la reserva, realiza una nueva búsqueda.",
    "productNotBooked":"La reserva ya no está disponible",
    "productNotBooked2": "Alguien se adelantó y reservó primero. No te preocupes, tenemos más opciones.",
    "productUnavailable": "Alguien se adelantó y reservó primero. No te preocupes, tenemos más opciones.",
    "tooMuchInfants": "Para viajar con más menores tenés que comprar asientos.",
      "tooMuchInfantsTitle": "Solo puedes llevar un bebé en brazos por adulto",
      "unableToConfirmFlight":"El vuelo ya no está disponible.\nNo te preocupes, tenemos más opciones."
  },
  "clubAlmundo": {
    "addPoints": "#BeneficiosEnSerio",
    "addInfo1": "Más viajás, más ahorrás. Asociate en Almundo.com y empezá a sumar puntos. Vas a poder acceder a eventos especiales, ver tus reservas, comprar más rápido y ¡pagar tus viajes con puntos!",
    "addInfo2": "Además, accede a beneficios y eventos exclusivos, solo por ser socio. ¡Sin tener que gastar tus puntos!",
    "addInfo3": "Asóciate ahora y empieza a sumar puntos.",
    "awardsInfo": "Participa de experiencias exclusivas.",
    "benefitsInfo": "Con nuestro proceso de pago rápido, comprar tu viaje nunca fue tan fácil.",
    "catalog": "Conoce más",
    "checkAccount": "Verifica tu cuenta",
    "checkAccountInfo": "para que verifiques tu cuenta y puedas asociarte a Club Almundo.",
    "clubAlmundo": "¿Qué es Club Almundo?",
    "clubAlmundoError": "No pudimos asociarte a Club Almundo. Llama al 01 800 253 0498 para que podamos ayudarte",
    "discountsInfo": "Cada punto que sumas es 1 USD de descuento en tu próximo viaje.",
    "experiencesInfo": "Lleva tus vouchers contigo. Podrás consultar tus compras de hoteles, vuelos y autos desde donde estés.",
    "idRequired": "Sin espacios, ni puntos",
    "idError": "El documento que ingresaste está asociado a otra cuenta.",
    "info1": "Todas tus compras en Almundo.com suman puntos que puedes intercambiar por premios, descuentos y promociones.",
    "infoBonus": "Cuando compras con tus puntos, cada punto ¡Vale 1 USD!",
    "moreInfo": "Conoce más",
    "partner": "Quiero asociarme",
    "sendEmailIos": "Te enviamos un e-mail para que verifiques tu cuenta y puedas asociarte a Club Almundo.",
    "welcomeMsg": "Bienvenido, ya eres parte de Club Almundo",
    "welcomeMsgInfo": "No pierdas más tiempo, empieza a sumar puntos con tus viajes."
  },
  "contact": {
    "address": "Almundo.com | SAS NIT 900844720 - 1 | Autopista Norte 122, 35 Piso 3 PBX | (+57) 1 5082969 | RNT 39681",
    "attention24hs": "Atención 24 hs",
    "call": "Llamar",
    "chat": "Chatear",
    "chatUnavailable":"No hay agentes disponibles",
    "clientAttention": "Atención al cliente",
    "contactDays": "Lunes a viernes de 8 AM a 9 PM ",
    "contactDays2": "Sábados y domingos de 10 AM a 4 PM",
    "contactDays3": "Domingos y festivos de 10 a 16 hs",
    "contactUs": "Contáctanos",
    "contactUs2": "Contáctanos",
    "followUs": "Síguenos en",
    "fromAbroad": "Desde el exterior",
    "loadingChatAvailable": "Buscando agentes...",
    "goToWeb": "Ir al sitio web",
    "schedules": "Horarios de atención telefónica",
    "telephoneAnswering": "Horario de atención telefónica"
  },
  "cyberMonday":{
    "cyberMonday": "CyberMonday",
    "hours": "Horas",
    "minutes": "Minutos",
    "seconds": "Segundos",
    "promotionInsurance": "¡Aprovechá los descuentos para viajar cuando quieras!"
  },
  "discovery":{
    "chooseA": "Elegir un vuelo y hotel",
    "chooseB": "Comprar todo incluido",
    "search": "¿Qué buscas?",
    "package": "Paquetes",
    "flightsHotel": "Vuelo + Hotel",
    "allCategories": "Vuelo, hotel, traslados y actividades",
    "destination": "Destino",
    "origin": "Origen",
    "packageInfo": "Si quieres saber más sobre este paquete, comunícate con nosotros al 01 800 253 0498",
    "phone": "01 800 253 0498"
  },
  "disney":{
    "acuaticParks":"Parques acuáticos",
    "acuaticPark":"Parque acuático",
    "addMealPlan":"Agregar plan de comidas",
    "addTicket":"Agregar pase",
    "animalKingdom":"Disney's Animal Kingdom Theme Park",
    "badComb":"Ups, mala combinación",
    "blizzardBeach":"Disney's Blizzard Beach",
    "changeTickets":"Cambiar pases",
    "changeMealPLan":"Cambiar plan de comidas",
    "changeRoom":"¡Ups! Si seleccionas está habitación, el pase que has elegido no está disponible. Pero, tenemos otras opciones de pases para ti.",
    "changeRooms2":"¡Ups! Si seleccionas esta habitación, se actualizará el precio del pase",
    "chooseDays":"Elige el número de días",
    "choosePlan":"Elegir plan",
    "chooseTicket":"Elegir pase",
    "chooseTicketType":"Elige el tipo de pase",
    "detail":"Ver detalle",
    "disney": "Disney",
    "disneyWorld": "Walt Disney World, Estados Unidos de América",
    "epcot":"Epcot",
    "espnWide":"Complejo Deportivo ESPN Wide World of Sports",
    "exclusiveMPlan":"Exclusivo por los pases seleccionados",
    "food": "Planes de Comidas Disney",
    "foodText": "Contratando los",
    "foodText2": "Planes de Comidas",
    "foodText3": "podrás disfrutar desde snacks hasta fabulosas experiencias gastronómicas en más de 200 locales y restaurantes.",
    "freeMeal":"Comida Gratis",
    "gralConditions":"Ver condiciones generales del pases",
    "golfCourse":"Disney's Oak Trail Golf Course",
    "golfMiniature":"Disney's Fantasia Gardens Miniature Golf Course",
    "golfWinterSummer":"Disney's Winter Summerland Miniature Golf Course",
    "gralConditionsA":"Condiciones generales",
    "hotelBennefits":"Beneficio en hoteles",
    "hotelIn":"Hotel en",
    "hollywoodStudio":"Disney's Hollywood Studios",
    "howReserv":"¿Cómo puedo reservar?",
    "infoMealPlan":"Qué son los planes de comida",
    "infoMsg":"La contratación de los planes de comidas son para todos los huéspedes y por el total de la estadía.",
    "keepPass":"Cancelar y mantener mi pase",
    "kidsNiteout":"Kid´s Nite out, INC.",
    "kidNOInfo1":"El personal de Kid's Nite Out brinda cuidado personalizado de niños en las habitaciones de los hoteles de",
    "kidNiteInfo1":"El personal de",
    "kidNiteInfo2":"Kid's Nite Out",
    "kidNiteInfo3":"brinda cuidado personalizado de niños en las habitaciones de los hoteles de",
    "kidNOInfo2":"Las actividades incluyen lectura de libros, colorear o juegos de espías. Además puedes contratar una niñera para que salga con la familia si es necesario. Kid's Nite Out también realiza campamentos y planifica fiestas  temáticas para niños.",
    "KNOItem1":"Las reservas son anticipadas. Puedes llamar de lunes a domingo de 8:00  a 21:00 hs.",
    "KNOItem2":"Los servicios están disponibles las 24 hs, los 7 días de la semana en los hoteles de",
    "KNOItem3":"El mínimo de reserva es de 4 hs para niños de 6 meses a 12 años.",
    "KNOItem4":"Puedes reservar hasta con 90 días de anticipación.",
      "KNOItem5":"Cancela la reserva hasta 24 hs. antes. Sino, se cobrará el cargo mínimo de 4 hs.",
    "magicBands": "Pulseras MagicBands",
    "magicBandsText": "Las pulseras",
    "magicBandsText2": "MagicBands",
    "magicBandsText3": "te servirán para entrar a la habitación, a los Parques de",
    "magicBandsText4": "y también podrás pagar las compras y comidas.",
    "mealPlan":"Plan de comidas",
    "mealPlanCard":"La contratación de planes de comida es para todos los huéspedes por el total de días de estadía.",
    "mealPlanCard2":"Para todos los huéspedes por el total de días de estadía.",
    "mealPlanrDescrip":"Los planes de comida son para todos los húespedes por el total de días de estadia de",
    "MKmoreFun":"Magia a tu manera + Parques de agua & más diversión®",
    "MKPark":"Magia a Tu Manera",
    "MKInfoA":"Con el pase",
    "MKInfoB":"accedes a un parque temático por día. Puedes elegir entre los cuatro Parques Temáticos de",
    "MKParkBasic":"Magia a tu Manera básico",
    "MKPIcon":"Magic Kingdom Park",
    "MKTicketsInfo":"Promoción {{plan}} GRATIS",
    "MKTicketsInfo2":"si eliges este pase",
    "MKTicketsInfo3":"te regalamos el {{plan}},",
    "MKTicketsInfo4":"por toda tu estadía y para todos los huéspedes dentro de",
    "MPExclusive":"Los Planes de Comidas Disney son exclusivos para los huéspedes de Hoteles Disney, y brindan una manera económica de disfrutar desde snacks hasta lujosas comidas en más de 100 restaurantes dentro de",
    "MPOpt":"Opciones de plan de comidas ",
    "MPFastFood":"Plan de comidas rápidas",
    "MPFastFood3":"¡Plan de comidas rápida!",
    "MPFastFood2":"Comidas rápidas",
    "MPFFSubtitle":"Cada persona mayor de 3 años recibirá por noche:",
    "MPFFInfo1":"Dos comidas de servicio rápido: plato principal y bebida sin alcohol o una comida estilo combo.",
    "MPFFInfo2":"Dos snacks a elegir entre: un helado o paleta, una caja de popcorn, una fruta o un refresco mediano o jugo.",
    "MPFFInfo3":"Un jarro recargable de bebidas por persona",
    "MPBasicFood":"Plan de comidas básico",
    "MPBasicFood2":"Comidas básico",
    "MPBFInfo1":"Una comida con servicio de mesa: plato principal, postre y bebida sin alcohol o un buffet completo.",
    "MPBFInfo2":"Una comida de servicio rápido: plato principal y bebida sin alcohol o una comida estilo combo.",
    "MPRemember":"Recordá que",
    "MPIncludes":"¿Qué incluye el plan?",
    "MPLuxuryFood":"Plan de comidas de lujo",
    "MPLuxuryFood2":"Comidas de lujo",
    "MPLFinfo1":"Tres comidas a elección entre restaurantes con servicios de mesa o de comidas rápidas.",
    "MPLFSubInfo1":"Cada comida con servicio de mesa incluye: plato principal, postre y bebida sin alcohol o un buffet completo.",
    "MPLFSubInfo2":"Cada comida de servicio rápido incluye: plato principal y bebida sin alcohol o una comida estilo combo.",
    "MPRInfo1":"Las propinas no están incluidas.",
    "MPRInfo2":"Los niños entre 3 y 9 años deben elegir del menú para niños, en caso que esté disponible.",
    "MPRInfo3":"El plan debe ser contratado por toda la estadía y por todos los huéspedes en la habitación (ejemplo: 5 noches de estadía incluyen 5 días de comidas).",
    "MPRInfo4":"Las comidas no son transferibles entre personas del grupo y vencen a la medianoche de la fecha de salida.",
    "MPRInfo5":"Debido a la concurrencia a los restaurantes con servicio de mesa, la disponibilidad puede ser limitada o no estar disponible si no reservaste con anticipación.",
    "MPRInfo6":"Los Planes de Comidas Disney no están disponibles para menores de 3 años, pero pueden compartir el plato de un adulto sin costo adicional, o se puede comprar una comida adicional del menú.",
    "MPRights":"Intercambio de derecho de comida plan básico y lujo",
    "MPRights1":"Una comida con servicio de mesa por persona puede ser cambiada por una comida con personajes (Cinderella's Royal Table requiere dos comidas con servicio de mesa).",
    "MPRights2":"Dos comidas con servicio de mesa por persona pueden ser cambiadas por una de las siguientes: una comida en uno de nuestros restaurantes más exclusivos; una comida con espectáculo (asientos en categorías 2 ó 3; categoría 1 en el show de las 21:30 hs); una comida en Cinderella's Royal Table o una comida en la habitación.",
    "moreFun":"Más Diversión:",
    "notIncludes":"no está incluido en el pase.",
    "notIncludes2":"no tiene el pase que habías elegido.",
    "notPass":"Sin pases",
    "planIncludes":"Detalle del plan",
    "ParkHooper":"Park Hopper",
    "parking": "Estacionamiento y transporte sin cargo",
    "parkingText": "Los buses, barcos, el monorriel y el estacionamiento no tienen cargo  en los hoteles",
    "parkingText2": "Resort Disney, Disney Springs, los Parques Temáticos y los Parques Acuáticos.",
    "PHInfoA":"¡Recorre los parques como tú quieras!",
    "PHInfoB":"Puedes visitar más de un parque temático por día, recorrer un parque por día o visitar uno a la mañana y otro a la tarde.",
    "PHInfoC":"Elige entre los cuatro Parques Temáticos de",
    "ParkHooperPlus":"Park Hopper Plus®",
    "PHPInfoA":"¡Se duplican los días de visita!",
    "PHPInfoB":"Puedes visitar los 4 parques temáticos de Disney como quieras, recorrer uno por día o uno a la tarde y otro a la mañana.",
    "PHPInfoB2":"Y además, ¡tienes visitas extras! Puedes visitar los Parques Acuáticos y atracciones de golf por la misma cantidad de días de tu pase.",
    "PHPInfoC":"Parques Temáticos de",
    "PHPDuplicate":"Duplica los días de tu pase en cualquiera de estos Parques Temáticos o atracciones:",
    "planNotCompatible":"Este plan no es compatible con tu pase",
    "popMsg":"Si cambias a este plan de comidas, necesitarás elegir otro pase",
    "popMsg2":"Si cambias a esta habitación, necesitarás elegir otro pase",
    "programForChildren":"Programa para niños",
    "resort":"Walt Disney World Resort.",
    "selectedPlan":"El plan de comida seleccionado",
    "showMealPlan":"Ver plan de comidas",
    "tematicPark": "Horario extendido en los Parques Temáticos",
    "tematicParkText": "Con las",
    "tematicParkText2": "Extra Magic Hours",
    "tematicParkText3": "puedes disfrutar de atracciones especiales cuando el parque está cerrado para el público general.",
    "tickets":"Pases Disney",
    "ticketsInfoA":"Súmale Pases de Disney a tu habitación y disfruta la magia de",
    "ticketsInfoB":"al máximo.",
    "ticketsGuest":"Para todos los huéspedes",
    "tiketsDetail":"Detalle del pase",
    "ticketDetail":"Ver detalle del pase",
    "transport": "Transporte al aeropuerto incluido",
    "transportText": "El servicio",
    "transportText2": "Disney Magical Express",
    "transportText3": "incluye traslados ida y vuelta entre el aeropuerto y el hotel",
    "typhoonLagoon":"Disney's Typhoon Lagoon",
    "waltDisney":"Walt Disney World"
  },
  "email": {
    "verifiedAccount": "La cuenta ya está verificada."
  },
  "explore": {
    "city": "¿Te encanta la ciudad?",
    "beach": "Relájate en la playa",
    "mountains": "Anímate a un exótico",
      "whereGo": "¿A dónde quieres ir tú?",
      "exGo":"Explorá el lugar ideal para vos"
  },
  "flights": {
    "airport": "Aeropuerto",
    "add": "Agregar Vuelo",
    "adult": "Adulto",
    "adultAgeLimit": "A partir de 12 años",
    "adults": "Adultos",
    "allAirports":"Todos los aeropuertos",
    "allClass": "Todas las clases",
    "arrive": "Llega el",
    "arrive2": "Llega",
    "arriveTime":"Hora de llegada",
    "arriveFlightDate":"Fecha de salida",
    "leaveFlightDate":"Fecha de regreso",
    "badSegments":"Intenta realizar una nueva búsqueda.",
    "badSegmentsTitle":"Ups, no encontramos lo que buscas.",
    "beforeDeparture": "La fecha de llegada es anterior a la hora de partida",
    "cabinTypeBussiness": "Business",
    "cabinTypeFirst": "Primera",
    "cabinTypePremium": "Premium",
    "cabinTypeTurist": "Turista",
    "call":"Llamar",
    "class": "Clase",
    "closeAirport": "Uy, el aeropuerto está cerrado",
    "closeAirportInfo": "estará cerrado entre el {{start}} y el {{end}}",
    "closeAirportInfo2": "por tareas de mantenimiento.",
    "closeAirportNear": "El aeropuerto más cercano es",
    "change": "Cambio de Aeropuerto",
    "changeAirportMsg": "No tiene aeropuerto, el más cercano es",
    "child": "Menor",
    "childAge0": "Menor de 1 año",
    "childAgeLimit": "De 0 a 11 años*",
    "childs": "Menores",
    "chooseFlight": "Elige vuelo",
    "departure": "Sale",
    "departureTime":"Hora de salida",
    "departureAirport": "El aeropuerto de salida debe estar en el país.",
    "duplicatedRoutes": "Las ciudades de salida y llegada no pueden estar duplicadas. Modifica alguna ciudad o intenta con un vuelo sólo ida.",
    "duplicatedRoutesTitle": "Ups, la ruta está duplicada.",
    "duplicatedRoutesSearchButton":"Buscar vuelo ida",
    "flight": "Vuelo",
    "flights": "Vuelos",
    "flightsDuration": "Duración de vuelo",
    "flightsFrom":"Ver vuelos desde",
    "flightsTo":"Ver vuelos hacia",
    "goingFrom": "Salgo de",
    "goingTo": "Voy a",
    "infant": "Bebé",
    "infantAgeLimit": "Menor a 2 años*",
    "infants": "Bebés",
    "infantsInArms": "Bebés en brazos",
    "infantInArm": "Bebé en brazo",
    "infantsValidation": "Solo se puede llevar un menor de 2 años en brazos por adulto.",
    "infantsValidation2": "Solo puedes llevar un bebé en brazos por adulto.",
    "infantsValidation3":"¡Ups!, Solo puedes llevar un bebé en brazos por adulto.",
    "infantsValidation4":"Para viajar con más menores debes comprar más asientos.",
    "invalidAdults":"Ups, necesitas cargar al menos un adulto para poder buscar este vuelo.",
    "invalidAdultsButton":"Cargar adulto",
    "invalidChannel":"Si necesitás viajar saliendo desde el exterior, acercate a la sucursal más cercana.",
    "invalidChannelTitle":"Ups, no podemos encontrar ese vuelo.",
    "invalidFop":"No pudimos hacer la reserva. Probá con una nueva búsqueda.",
    "invalidFopTitle":"Ups, tuvimos un error.",
    "invalidOriginDestination":"No podemos encontrar ese vuelo. Llamanos o acercate a la sucursal más cercana.",
    "invalidOriginDestinationTitle":"Ups, algo anda mal.\n",
    "invalidPassengerTitle":"Ups, son demasiados pasajeros",
    "invalidPassenger":"El máximo de pasajeros que podemos buscar es 9.",
    "invalidPassengerButton":"Editar pasajeros",
    "leave": "Sale el",
    "leaveDate": "Fecha salida",
    "luggageA":"Estos vuelos",
    "luggageASingular":"Este vuelo",
    "luggageB":"no incluyen equipaje",
    "luggageBSingular":"no incluye equipaje",
    "mexSegmentRequired":"Al menos una ciudad debe ser en México. Edite el origen o el destino para buscar tu vuelo.",
    "mexSegmentRequiredTitle":"No te olvides de México",
    "minDeparture3Days":"Si necesitás salir hoy, podés comprar tu pasaje en la sucursal más cercana.",
    "minDeparture3DaysTitle":"Ups, no podemos buscar ese vuelo.",
    "missingFrom":"Ups, faltó completar de dónde salís.",
    "missingFromButton":"Completar ciudad de origen",
    "missingTo":"Ups, faltó cargar a dónde vas.",
    "missingToButton":"Completar ciudad de origen",
    "mostWanted":"Más buscados",
    "multiCity": "Varias ciudades",
    "nearbyAirports":"Más cercanos",
    "noMatch": "Lo sentimos, no encontramos vuelos disponibles para tu búsqueda.",
    "onDate": "*Al {{date}}",
    "onDepartureDate": "*A la fecha de salida",
    "oneWay": "Solo ida",
    "onReturnDate": "*A la fecha de regreso",
    "operator": "Operado por",
    "passengers": "Pasajeros",
    "passengersCountValidation": "¡Ups!, puedes sacar hasta 9 pasajes por compra.",
    "pastDeparture":"Aún no podemos viajar al pasado. Mejor probá con una fecha en el futuro.",
    "pastDepartureButton":"Editar fechas",
    "pastDepartureTitle":"Hey Marty!",
    "returnDate": "Fecha regreso",
    "roundTrip": "Ida y vuelta",
    "sameRoute": "La ciudad de salida tiene que ser distinta a la de llegada.",
    "sameRouteButton": "Editar ciudad",
    "sameRouteTitle": "Ups, la ciudad está repetida",
    "seeBranchs":"Ver sucursales",
    "tecStop": "Parada técnica",
    "whatType": "¿Qué tipo de vuelo buscas?",
    "weSearch2": "el mejor precio para tu vuelo!",
    "FSR_buyValidation": "Elige un vuelo para continuar.",
    "FSR_buyValidationDeparture":"Elige un vuelo de ida para continuar.",
    "FSR_buyValidationReturn":"Elige un vuelo de vuelta para continuar.",
    "FSR_duration": "Duración",
    "FSR_flight": "Vuelo",
    "FSR_leave": "Ida",
    "FSR_leg": "Con 1 escala",
    "FSR_legs": "Con {{legs}} escalas",
    "FSR_return": "Vuelta",
    "FSR_taxesRates": "Impuestos y tasas",
    "FSR_titleHeader": "Elige tus vuelos",
    "FSR_totalOneDue": "Tarifa total en 1 cuota",
    "FSR_viewPaymentMethods": "Tarifa en una cuota",
    "FSR_paymentMethods": "Tarifa en una cuota",
    "FSR_viewPaymentMethodsTitle1":"Con las siguientes tarjetas",
    "FSR_viewPaymentMethodsTitle2":"Cuotas fijas con los siguientes bancos",
    "FSRF_afternoon": "Tarde",
    "FSRF_airlines": "Líneas aéreas",
    "FSRF_allAirlines": "Todas las líneas aéreas",
    "FSRF_arrivalAirports": "Aeropuertos de regreso",
    "FSRF_arriveAt": "Quiero llegar a",
    "FSRF_departureAirports": "Aeropuertos de ida",
    "FSRF_departureFlight":"Vuelo de ida",
    "FSRF_departureTime": "Horarios del vuelo de salida",
    "FSRF_earlyMorning": "Madrugada",
    "FSRF_morning": "Mañana",
    "FSRF_night": "Noche",
    "FSRF_outFrom": "Quiero salir desde",
    "FSRF_restartFilter": "Reiniciar todos los filtros",
    "FSRF_returnTime": "Horarios del vuelo de regreso",
    "FSRF_returnFlight":"Vuelo de vuelta",
    "FSRF_schedules":"Horarios de vuelos",
    "FSRF_stop": "Escala",
    "FSRF_stops": "Escalas",
    "FSRF_stop_0": "Sin escalas",
    "FSRF_stop_1": "1 escala",
    "FSRF_stop_2": "2 o más escalas",
    "FSRF_stop_3": "3 o más escalas",
    "FSRF_stop_4": "4 o más escalas"
  },
  "insurance":{
    "adult": "Adulto",
    "adults": "Adultos",
    "adultsRange": "de 36 hasta 69 años",
      "ageLimit": "¡Sin límite de edad!",
      "ageLimitYoung": "Hasta 35 años",
      "ageLimitInfinit": "Hasta 69 años",
      "annual": "Anual",
      "annualRange": "¡Viajá los 365 días del año! sin límite de duración del viaje.",
      "appDiscount": "Descuento promo app",
      "arrive": "Salgo el",
      "cancelPoliciesTitle": "Política de cancelación",
      "cancelPolicies": "Cancelá gratis el seguro hasta 24 hs. antes del viaje",
      "cancelPoliciesDiscount": "¡Contratá Gold para varios viajes y ahorrá un 20%!",
      "charges": "Cargos de financiación",
    "coverage": "Cobertura",
      "destinations": "Destino",
    "elder": "Mayor",
    "elders": "Mayores",
    "eldersRange": "mayor a 70 años",
      "emContact": "Contacto de emergencia",
      "extraBenefitsIncluded": "Otros beneficios incluidos en la cobertura",
      "insurance": "Seguros de viaje",
      "insurance2": "Seguros",
    "international": "Internacional",
    "national": "Nacional",
      "includeOptions": "Incluir opciones de cobertura anual",
      "internationaldestinations":"Destinos Internacionales",
      "ISR_taxes": "Impuestos y tasas",
      "ISR_titleHeader": "Elegí tu seguro",
      "leaveDate":"Fecha salida",
      "leaveOn": "Me voy el",
      "multiTrips": "Varios viajes",
      "multiTripsRange": "para varios viajes de hasta 30 días cada viaje.",
      "multiTripsRangeSince":"Cobertura anual del",
      "multiTripsRangeUntil":"hasta el",
      "noMatch": "Lo sentimos, no encontramos seguros disponibles para tu búsqueda.",
      "onlyTrip": "Único viaje",
    "people": "Personas",
      "percentOff": "% OFF",
      "person": "persona",
      "policiesCoverDays" :"7 días de cobertura por viaje único",
      "policiesCoverDaysAnnual": "Cobertura anual ilimitado por 365 días",
      "policiesCoverDaysMulti": "Cobertura anual para varios viajes de hasta 30 días cada viaje.",
      "priceNotDiscount":"Precio sin promo",
      "recentSearchs": "Búsquedas recientes",
      "returnDate": "Fecha regreso",
      "since":"Desde",
      "totalCover": "Cobertura Total",
      "tooMuchDaysInsurance": "El seguro nacional no puede superar los 30 días. Modifica las fechas y volvé a intentar.",
      "until": "Hasta",
      "whoEmContact": "¿Quién es tu contacto de emergencia?",
      "young": "Joven",
      "youngs": "Jóvenes",
      "youngsRange": "Hasta 35 años"
    },
    "global": {
      "add": "Agregar",
      "age": "Edad",
      "all": "Todas",
      "all2":"Todos",
      "actual": "Actual",
      "addPassport":" Cargar pasaporte",
      "address": "Domicilio",
      "after": "Siguiente",
      "allService": "Todos los servicios",
      "and": "Y",
      "apply": "Aplicar",
      "are": "Son",
      "area": "Área",
      "awards": "Sorteos y eventos",
      "back": "Volver",
      "bank": "Banco",
      "before": "Anterior",
      "behind": "Atrás",
      "benefits": "Comprá fácil y rápido",
      "bonus": "Bonificación",
      "branchs": "Sucursales",
      "buy": "Comprar",
      "call": "Llamar",
      "checkCardNumber": "Revisar Nº de tarjeta",
      "cancel": "Cancelar",
      "cancelPay": "Políticas de cancelación",
      "capture": "Capturar",
      "card": "Tarjeta",
      "cardExpiration": "Vencimiento Tarjeta",
      "cardNumber": "Nº de tarjeta",
      "changeCountry": "Cambiar país",
      "changePayment": "Elegir otra forma de pago",
      "checkData": "Revisar datos",
      "city": "Ciudad",
      "clubAlmundo": "Club Almundo",
      "close": "Cerrar",
      "connectionProblems": "Hay problemas con la conexión. Intentá ingresar más tarde.",
      "contact": "Contacto",
      "continue": "Continuar",
    "completeField":"Complete el campo",
      "coin": "Moneda",
      "currency": "MXN",
      "country": "País",
      "dates": "Fechas",
      "dateOffer":"Fechas en oferta",
      "day": "Día",
      "days": "Días",
      "delete": "Eliminar",
      "deletedData": "Dato eliminado",
      "deletedPhone": "Teléfono eliminado",
      "deleteFile": "Eliminar dato",
      "deletePassaport": "Eliminar pasaporte",
      "deletePhone": "Eliminar teléfono",
    "deletedCompanion": "Compañero eliminado",
      "description": "Descripción",
      "detail": "Detalle",
    "devolution":"Entrega",
      "discounts": "Sumá puntos por tus compras",
      "dolar": "USD",
      "edit": "Editar",
      "editBirthday": "Editar fecha de nacimiento",
      "editCard": "Editar tarjeta",
      "editDate": "Editar fecha",
      "editName":"Editar nombres",
      "editNumber": "Editar número",
      "editSearch": "Modificar búsqueda",
    "end":"Fin",
      "enterEmail": "Ingresa un e-mail válido.",
      "enterPassword": "Ups, ingresá una contraseña.",
      "email": "E-mail",
      "errorAction": "Ups, no pudimos subir tu foto :(",
      "errorProvider": "No se pudo realizar la acción.",
      "experiences": "Reservas",
      "expiration": "Vencimiento",
      "expirationDate": "Fecha de vencimiento",
      "expired":"Vencida",
      "facebook": "Facebook",
    "fem":"Femenino",
      "filter": "Filtrar",
      "finish": "Finalizar",
      "flight": "Vuelos",
      "free":"Gratis",
      "from": "A partir de",
      "general": "General",
      "gender": "Género",
      "getInto": "Ingresar",
      "getTerms": "Para continuar, aceptá los términos y  condiciones",
      "google": "Google",
      "have": "Tienes",
      "hellowExtr": "¡Hola, extraño!",
      "hi": "Hola",
      "hiExtr": "Hola, extraño",
      "hide": "Ocultar",
      "hs":"hs",
      "includes": "Incluye",
      "ID": "IFE",
      "idType": "Tipo de Documento",
      "ilustrativeImg": "Imagen ilustrativa",
      "in": "En",
      "inconvenient": "¡Ups!",
      "inconvenientSearch": "¡Ups! Ocurrió un error durante la búsqueda.",
      "insidePhone":"01 800 253 0498",
      "iReadAccept": "Leí y acepto",
      "itineraryConditions": "Por favor, tienes que aceptar el itinerario",
      "landingPlaces": "Asesoramiento en destino",
      "list": "Lista",
      "loading": "Cargando",
      "map": "Mapa",
      "max": "Máximo",
      "max2": "Máx.",
    "masc":"Masculino",
      "menu": "Menú",
      "min": "Mínimo",
      "month": "Mes",
      "months": "Meses",
      "more": "Más",
      "moreRelevant": "Más relevantes",
      "mustUpdateTitle": "Aplicación desactualizada",
      "mustUpdate": "Debes actualizar la aplicación para continuar",
      "nacionality": "Nacionalidad",
      "night": "Noche",
      "nights": "Noches",
      "noConnect": "Parece que hay problemas con tu conexión. Intentá ingresar más tarde.",
      "notifications": "Notificaciones",
      "number": "Número",
      "numbers": "Ingresa 11 números.",
      "numbers2": "Ingresá 7 u 8 caracteres numéricos",
      "of": "De",
      "off": "Off",
      "offer": "Ofertas",
      "ok": "Listo",
      "onlyLetters": "Ingresa solo letras",
      "onlyNumbers": "Ingresa solo números",
      "opinions": "Opiniones",
      "optionNoAvailable": "Opción no disponible",
      "or": "O puedes",
      "order": "Ordenar",
      "orderTitle": "ORDENAR",
      "originNull":"Ups, no volamos ahí",
      "ourBranchs": "Nuestras sucursales",
      "outsidePhone":"0810 333 1153",
      "otherPhones": "Otros teléfonos",
    "obligatoryField": "Campo obligatorio",
    "obligatoryField2": "Obligatorio",
      "passenger": "Pasajero",
      "passengers": "Pasajeros",
      "passaport": "Pasaporte",
      "password": "Contraseña",
      "passwordLenght": "Entre 8 y 16 caracteres",
      "payment": "Pago",
      "payment2":"Tarjeta ingresada como garantía",
      "paymentMethod": "Tipo de pago",
      "people": "Persona",
      "peoples": "Personas",
      "phone": "Teléfono",
      "phoneType": "Tipo de télefono",
      "phoneCountryCod": "52",
      "phoneCountryCodLength": "Entre 1 y 3 caracteres",
      "phoneAreaCodeLength": "Entre 1 y 4 caracteres",
      "phoneLength": "Entre 5 y 11 caracteres",
      "points": "puntos",
      "price": "Precio",
      "priceAsc": "Precio más bajo",
      "priceDesc": "Precio más alto",
      "principal": "Principal",
      "processing": "Procesando solicitud...",
      "promotions": "Bonificaciones",
      "privacyPolicy": "Políticas de privacidad",
      "ready": "Listo",
      "recents": "Recientes",
      "reservation": "Reserva",
      "reservations": "Reservas",
      "retirement": "Retiro",
      "return": "Devuelvo",
      "retrying": "Reintentar",
      "save": "Guardar",
      "search": "Buscar",
      "searching": "Buscando",
      "seeAll": "Ver todos",
      "seeAll2": "Ver todas",
      "seePromotions": "Ver bonificaciones",
      "services": "Servicios",
      "select": "Seleccionar",
      "selected": "Seleccionada",
      "send": "Enviar",
      "searchAgain": "Realizar nueva búsqueda",
      "settings": "Ajustes",
      "several": "Varias",
      "show": "Mostrar",
      "since": "Desde",
      "socialMedia": "Redes Sociales",
      "start": "Inicio",
      "termsConditions": "Términos y condiciones",
      "termsConditions2": "Aceptá los términos y condiciones para poder finalizar la reserva.",
      "timeout": "Ups, esto está tardando demasiado.\nDanos una segunda oportunidad y volvé a intentarlo.",
    "trips":"Mis viajes",
      "to": "A",
      "the":"El",
      "type": "Tipo",
      "total": "Total",
      "toThe":"Al",
      "ufa": "¡Ufa!",
      "understood": "Entendido",
      "unlink": "Desvincular",
      "undo": "Deshacer",
      "until": "Hasta",
      "update":"Actualizar",
      "upgrade":"Actualizar",
      "upgradeVersion":"¡Lanzamos una nueva versión!",
      "upgradeInfo":"Actualizá la aplicación para seguir viajando de la forma más fácil.",
      "validCUIL": "Ingresa un CUIL válido",
      "validCUIT": "Ingresa un CUIT válido",
      "week": "Semana",
      "weeks": "Semanas",
      "with": "Con",
      "year": "Año",
      "years": "Años",
      "accept": "Aceptar",
      "yes": "Sí",
      "no": "No",
    "whoIsGoingToFly":"¿Quienes van a viajar?",
    "checkPassengers":"Elegí los pasajeros",
      "errorApplication": "Ups, hubo un error.",
      "errorApplication2": "Vuelve a intentar en unos minutos."
    },
    "home":{
      "hiExtr":"Hola extraño",
      "inspirationExplore":"Inspirate, explorá un destino",
      "looking4":"¿qué buscas?",
      "myReserv":"Mis reservas",
      "offersTitle":"¡No te pierdas estas ofertas!"
    },
    "hotel": {
      "asCard": "Como figura en la tarjeta",
      "addRoom": "Agregar habitación",
      "adult": "Adulto",
      "adults": "Adultos",
      "arrive": "Llego el",
      "bedDouble": "Cama doble",
      "bedSimple": "Camas simples",
      "cancellationP": "Política de cancelación",
      "cancelPolicies": "Las condiciones de cancelación pueden variar según el tipo de habitación elegida. Consulta las condiciones en el detalle de cada habitación.",
      "changeRooms": "Cambiar habitación",
      "checkIn": "Entrada",
      "checkInFrom": "Entrada: a partir de las",
      "checkOut": "Salida",
      "checkOutFrom": "Salida: hasta las",
      "child": "Niño",
      "childAge0": "Menor de 1 año",
      "childAge1": "1 año",
      "childAge": "Edad del menor",
      "childAge2": "Edad menor",
      "childAge3": "Edad niño",
      "childAgeLimit": "Hasta 17 años",
      "childFinish": "Al finalizar el viaje",
      "childs": "Niños",
      "dateChoose": "Elegí las fechas",
      "discountSelection": "¡Esta selección tiene descuento!",
      "endDate": "Fecha Fin",
      "errorToMuchDays": "Tu estadía no puede superar las 30 noches. Modifícalo y vuelve a intentar.",
      "errorToMuchPeople": "Ingresaste demasiados huéspedes.",
      "fastCheckOutAddCard": "Quiero usar esta tarjeta en el futuro",
      "fastCOBillingContact": "Agregar nuevo",
      "guesthouse": "Huéspedes",
      "guesthouse2": "Huésped",
      "goingTo": "Voy a",
      "hotel": "Hotel",
      "hotelBill": "El hotel te cobrará además",
      "hotelBill2": "en concepto de impuesto municipal.",
      "hotels": "Hoteles",
      "hotelChoose": "Elige tu hotel",
      "hotelName": "¿Conoces el nombre del hotel?",
      "hotelSearch": "Buscar por nombre de hotel",
      "infoIvaA": "Los residentes colombianos deberán abonar",
      "infoIvaB": "en concepto de IVA directamente en el hotel.",
      "leaveDate": "Me voy el",
      "mealPlan": "Plan de comidas",
      "noDisp": "Uy, no hay disponibilidad.",
      "noMatch": "Lo sentimos, no encontramos hoteles disponibles para tu búsqueda.",
      "onlyRoom": "Solo habitación",
      "optionalRoomService": "Servicios opcionales de habitación",
      "opinions":"No se encontraron opiniones sobre este hotel",
      "padCharges":"El precio de esta habitación",
      "padCharges2":"no incluye",
      "payAtDestination":"Pagá en el hotel",
      "payAtHotel": "en el hotel.",
      "payDues":"Pagá en cuotas",
      "paymentMethods":"Medios de Pago",
      "priceAsc": "Precio de menor a mayor",
      "priceNightRoom": "Precio habitación por noche",
      "priceNotDiscount":"Precio sin promoción",
      "priceNotDiscount2":"Sin promo",
      "pricePerNight": "Hab. por noche",
      "pricePerNightIos": "Precio por noche (incluye impuestos y tasas)",
      "priceTotal": "Precio por estadía",
      "priceTotal2": "Por estadía",
      "pricePopRefresh": "Uy, el hotel actualizó el precio",
      "promotion": "Promo:",
      "ranking": "Clasificado en el puesto no.",
      "recentSearchs": "Búsquedas recientes",
      "recommended": "Hotel recomendado",
      "relevant": "Más relevantes",
      "room": "Habitación",
      "rooms": "Habitaciones",
      "roomPerNight": "hab. por noche",
      "roomPopPrice": "¡Genial! La habitación tiene un mejor precio",
      "reservServ": "Servicios incluidos en la reserva",
      "restartFilter": "Reiniciar todos los filtros",
      "restartFilterIos": "Borrar todos los filtros",
      "starAsc": "Menos estrellas",
      "starDesc": "Más estrellas",
      "stars": "Estrellas",
      "star": "Estrella",
      "startDate": "Fecha Inicio",
      "stay": "Estadía",
      "seeHotel": "Ver hotel",
      "selectedRoom": "Habitación Seleccionada",
      "taxesRates": "Impuestos y tasas",
      "taxesRates2":"Impuestos y tasas no incluidos",
      "taxesRatesIn": "incluye impuestos y tasas",
      "weSearch1": "¡Estamos buscando",
      "weSearch2": "el mejor precio para tu hotel!",
      "HDET_cancelFreeDate": "Cancela gratis la reserva hasta el {{date}}.",
      "HDET_cancelCondition": "Si cancelas la reserva no tiene reembolso. Una vez confirmada la reserva no puedes modificar las fechas.",
      "HDET_changeRooms": "Cambiar habitación",
      "hotelDetail": "Detalle de Hotel",
      "hotelBedsError":"Uy, no hay disponibilidad",
      "hotelBedsInfo":"Alguien se adelantó y reservó primero. No te preocupes, tenemos más opciones para ti.",
      "hotelBedsRoomChange":"Ver otra habitación",
      "hotelBedsBackButton":"Volver a hoteles"
    },
    "landing": {
      "autumn": "Otoño",
      "dailyBudget": "Presupuesto diario",
      "hotels": "Hoteles en",
      "ideal": "Ideal para",
      "explore": "Explora",
      "explorer": "Explorar",
      "explorePlace": "Explora el lugar ideal para ti",
      "flights": "Vuelos a",
      "miamiFlights": "Vuelos a Miami",
      "miamiHotels": "Hoteles en Miami",
      "offers": "¡No te pierdas estas ofertas!",
      "recommended": "Recomendaciones",
      "recommendedStay": "Estadía promedio",
      "seasson": "¿Cómo es el clima?",
      "spring": "Primavera",
      "summer": "Verano",
      "tripInfo": "Información para tu viaje",
      "whatToDo": "¿Qué hacer en",
      "winter": "Invierno",
      "Li_acuatic": "Acuático",
      "LI_alone": "Solo",
      "LI_beach": "Playa",
      "LI_city": "Ciudad",
      "LI_couple": "Pareja",
      "LI_entertainment": "Diversión",
      "LI_exotics": "Exóticos",
      "LI_family": "Familia",
      "LI_friends": "Amigos",
      "LI_history": "Historia",
      "LI_mountain": "Montaña",
      "LI_night": "Noche",
      "LI_shop": "Compras",
      "LI_sports": "Deportes",
      "LI_xsports": "Deportes extremos",
      "LI_walk": "Trekking"
    },
    "login": {
      "accept": "Acepto",
      "acceptb": "Al asociarte aceptas los",
      "accountExist": "Esta cuenta ya existe",
      "accountNotExist": "Esta cuenta no existe.",
      "accountReady": "Ya creaste tu cuenta",
      "accountRegs": "Tu cuenta está registrada en otro país.",
      "birthDate": "Fecha de nacimiento",
      "chooseCountry": "Elige tu país de residencia",
      "confirmEmail": "Revisa que tu e-mail sea correcto",
      "createAccount": "Crear cuenta",
      "dateInvalidMessage": "Ingresá una fecha de nacimiento válida.",
      "dateInvalidTitle": "Fecha de nacimiento inválida",
      "enterBirthDate": "Ingresa tu fecha de nacimiento.",
      "enterLastName": "Ingresa tu apellido.",
      "enterName": "Ingresa tu nombre.",
      "enterEmail": "Ups, ingresa tu e-mail.",
      "expirationAccount1": "Tu contraseña se venció",
      "expirationAccount2": "Te enviamos un e-mail para que recuperes la contraseña y puedas ingresar a tu cuenta.",
      "forgotMyPassword": "Olvidé mi contraseña",
      "forVerification": "Para verificarla",
      "guestMode": "Seguir como invitado",
      "higher18": "Tienes que ser mayor de 18 años.",
      "higher18b": "Tienes que ser mayor de 18 años para crear tu cuenta",
      "incorrectCountry": "Tu cuenta no está registrada en el país que seleccionaste. Tienes que volver a ingresar",
      "lastName": "Apellido/s",
      "login": "Iniciar Sesión",
      "logOut": "Cerrar sesión",
      "notGetEmail": "¿No te llegó el e-mail?",
      "name": "Nombre/s",
      "nameUserIncorrect": "Nombre de usuario o contraseña incorrectos.",
      "orSingIn": "O puedes ingresar con",
      "passLength": "Ingresa entre 8 y 16 caracteres",
      "recoverPassSteps": "Con los pasos a seguir para recuperarla.",
      "sendEmailBtn": "Reenviar e-mail",
      "signIn": "Ingresar",
      "signUp": "Crear cuenta",
      "toRecoverPass": "Para recuperarla, ingresa tu e-mail",
      "validateAccount": "Valida tu cuenta para ver todas las funcionalidades. Después de validar, reinicia la app.",
      "validateAccount2": "Valida tu cuenta",
      "welcome": "¡Bienvenido!",
      "weSendEmail": "Te enviamos un e-mail a",
      "wrongUser": "El usuario o la contraseña no son válidos",
      "yesMyEmail": "Sí, es mi e-mail"
    },
    "password": {
      "accountDoesntExists": "La cuenta no existe.",
      "enterNewPassword": "Ingresa la nueva contraseña.",
      "enterPassword": "Ingresa la contraseña actual.",
      "invalidPassword": "El valor de la contraseña es inválido.",
      "invalidPasswordAccount": "La contraseña actual es incorrecta.",
      "messageInfo": "Tu contraseña se modificó exitosamente."
    },
    "personalData": {
      "enterExpirationDate":"Ingresa una Fecha de vencimiento.",
      "enterName": "Ingresa un Nombre.",
      "enterLastName": "Ingresa un Apellido.",
      "enterBirthDate": "Ingresa una Fecha de Nacimiento.",
      "enterGender": "Ingresa un Género.",
      "enterDocumentNumber": "Ingresa un Documento de identidad.",
      "enterDocumentType": "Ingresá un Tipo de Documento",
      "enterPassport": "Ingresa un pasaporte.",
      "higher18": "Tienes que ser mayor de 18 años.",
      "invalidExpirationDate": "La fecha no puede ser anterior a la fecha actual"
    },
    "phone": {
      "addPhone": "Agregar teléfono",
      "areaCod": "Cód. de área",
      "countrieCod": "Cód. de país",
      "enterCountryCod": "Ingresa el código de país",
      "FAX": "Fax",
      "LAND": "Particular",
      "MOBILE": "Celular"
    },
    "profile": {
      "alreadyVerify": "Ya verificamos tu cuenta",
      "billingDataInfo": "Todavía no asociaste ningún dato de facturación. Agrégalos para comprar más fácil y rápido",
      "companions": "Compañeros de viaje",
      "choosePic": "Elegir una foto",
      "id": "Documento de identidad",
      "idNumber": "¿Es este tu número de documento?",
      "idNumber2": "Ten en cuenta que no podrás volver a editarlo.",
      "issuingCountry": "País emisor",
      "linkFacebook": "Vincular con Facebook",
      "linkGoogle": "Vincular con Google",
      "makePic": "Hacer una foto",
      "myAccount": "Mi cuenta",
      "nameBussinesName": "Nombre / Razón social",
      "newPassword": "Nueva contraseña",
      "notVerify": "Sin Verificar",
      "noVouchersA": "Todavía no tienes vouchers para mostrar",
      "noVouchersB": "Aquí solo verás tus reservas de vuelos, hoteles, autos y seguros de viaje.",
      "personalData": "Datos personales",
      "profile": "Perfil",
      "sendEmail": "Reenviar e-mail de validación",
      "sendEmailInfo1": "Te enviamos un e-mail a",
      "sendEmailInfo2": "Para que confirmes tu identidad. Si ya validaste, reiniciá tu app.",
      "sendEmailInto3": "Puede tardar unos minutos o llegar como correo no deseado.",
      "sendEmailInfo4": "Reenviar e-mail de verificación",
      "unlinkMsg": "Si te desvinculas, necesitarás una contraseña para ingresar a tu cuenta.",
      "unlinkFacebook": "Desvincular Facebook",
      "unlinkGoogle": "Desvincular Google+",
      "whoIs": "¿{{name}}, eres tú?"
    },
    "travelMates":{
      "addMsg":"Agregá a quienes suelen viajar con vos y asocialos a tu cuenta.",
      "deleteTravelMates":"Eliminar compañero de viaje",
      "travelMates":"Compañeros de viaje",
      "infoTMModal":"Agregalos en tu perfil y en la próxima compra los vas a cargar más rápido.",
      "choose":"Elegí un pasajero",
      "complete":"Completá los formularios más rápido",
      "invalidBirthDate":"La fecha no puede ser posterior a la fecha actual"
    },
    "offers": {
      "notFindOffers": "No hay ofertas disponibles.",
      "multiTripTitle": "Conocé varios destinos al precio de uno",
      "singleTripTitle": "Los mejores precios para tus vuelos"
    },
    "reservations": {
      "ageLimit": "Sin límite de edad",
      "airlineCase":"Consultar con aerolínea",
      "assistIsurance": "Assist Card",
      "almundoCode": "Código de identificación Almundo.com",
      "allDestinations": "Todos los destinos internacionales",
      "aumotaticTransmission": "Caja automática",
      "buyCode": "Código de compra",
      "cancelledResr": "Reserva Cancelada",
      "car": "Auto",
      "conditionitedAir": "Aire acondicionado",
      "cantShowRes": "Algo pasó y no podemos mostrar tus reservas. Intenta en unos minutos.",
      "carsInfo1": "Para retirar el auto,",
      "carsInfo2": "imprime el voucher que te llegó por e-mail.",
      "carsInfo3": "Recuerda que el conductor tiene que presentar su licencia de conducir válida y una tarjeta de crédito a su nombre.",
      "codeEntry": "Código ingreso",
      "codeRetirement": "Código retiro",
      "contact": "Contacto de emergencia",
      "coverage2": "Cobertura",
      "coverage": "De cobertura",
      "coverageAmount": "Monto de cobertura",
      "duration": "Duración",
      "especialCoverage": "Cobertura especial",
      "healthInsurance": "Seguro de viaje",
      "infoA":"Solo verás tus reservas de",
      "infoB":"vuelos, hoteles y autos.",
      "leasingCar": "Alquiler por",
      "luggage": "Equipaje permitido",
      "pass": "Pases",
      "regime": "Régimen",
      "reservCode": "Código de reserva Almundo.com",
      "retirementOffice": "Oficina de retiro",
      "returnOffice": "Oficina de devolución",
      "saveUsed": "Guardar en usadas",
    "seeReservation": "Ver reservas",
      "sendBill": "Enviar factura por e-mail",
      "sendBillUndoBar": "Enviamos la factura a",
      "sendVoucherUndoBar": "Enviamos el voucher a",
      "sendVoucher": "Enviar voucher por e-mail",
      "titularRes": "Titular de la reserva",
      "validity": "Vigencia",
      "voucher": "Voucher",
      "voucherTitle": "Este voucher no es válido como credencial.",
      "voucherInfo": "En caso de necesitar asistencia, llama previamente a los teléfonos de contacto de Assist Card",
      "voucherInfo2": "que están en el voucher que te llegó por e-mail.",
      "webCheckIn": "Web check-in",
      "webCheckCode": "Código web check-in",
      "RF_infoA": "Revisá los requisitos, documentación y restricciones migratorias",
      "RF_infoB": "Del destino final y de cada escala.",
      "deleteTitle": "Reserva Cancelada",
      "deleteMsg": "¿Quieres eliminarla?",
      "usedTitle": "Ya no verás la reserva",
      "usedMsg": "Podrás verla en Reservas usadas desde Mi cuenta en la página web",
      "errorCustomizeReserveUsed": "No pudimos guardar tus reservas en usadas. Intenta en unos minutos.",
      "errorCustomizeReserveDeleted": "No pudimos eliminar tus reservas canceladas. Intenta en unos minutos.",
      "cancelPoliciesInfo": "Revisa las políticas de cancelación en el voucher que te llegó por e-mail."
    },
    "settings": {
      "aboutApp": "Sobre la aplicación",
      "appOpinion": "¿Qué te parece la app?",
      "liveFeedBack": "Dejar opinión",
      "rateApp": "Calificar app",
      "version": "Almundo.com.mx - Versión"
    },
    "vr": {
      "almundoVR": "Almundo VR",
      "cardBoard": "¡Usá tu Cardboard!",
      "cardBoardSub": "Activá el botón abajo a la derecha y disfrutá Almundo VR.",
      "discoverVr": "Descubrí un destino o una experiencia con nuestros videos y acercarte a tu próximo viaje, incluso antes de volar.",
      "downloadedVr": "Video descargado",
      "downloadVideo": "Descargar video",
      "enterDest": "Ingresá un destino",
      "seeNow": "Ver ahora",
      "see360": "Mirá el video en 360º",
      "swipe": "Deslizá la pantalla con el dedo para ver todos los ángulos.",
      "vWorld": "Te llevamos al mundo virtual",
      "vrCat_adventure": "Deportes y aventura",
      "vrCat_beach": "Sol + Playa",
      "vrCat_city": "Ciudades del mundo",
      "vrCat_culture": "Cultura y tradición",
      "vrCat_food": "Sabores regionales",
      "vrCat_nature": "Pura naturaleza",
      "vrCat_walk": "Recorridos encantadores",
      "vrCat_relax":"Relax infinito"
    },
    "wallet": {
      "addCard": "Agregar tarjeta",
      "amexValidCardNumbers": "El Nº de tarjeta debe contener 15 caracteres.",
      "validCardNumbers": "El Nº de tarjeta debe contener 16 caracteres.",
      "validCardNumbers2": "El Nº de tarjeta debe contener 15 caracteres.",
      "numericChars": "Usa solo números.",
      "deletedCard": "Tarjeta eliminada",
      "invalidExpiration": "El vencimiento no puede ser anterior a la fecha actual",
      "titularName": "como figura en la tarjeta",
      "wallet": "Cartera",
      "walletEmpty": "Tu cartera aún está vacía",
      "walletEmptyInfo": "Agrega tus tarjetas de crédito para pagar tus compras más fácil y rápido."
  },
  "trips": {
    "addTrip":"Crear viaje",
    "address": "Dirección",
    "addressOptional": "Dirección (Opcional)",
    "myTripsHeader":"Mis viajes",
    "addTripsHeader":"Crear viaje",
    "editTripsHeader":"Editar Viaje",
    "day": "Día",
    "delete": "Eliminar",
    "deleteEventAns":"¿Querés eliminar el {{trip}}?",
    "activity": "Actividad",
    "addBy": "Agregado por",
    "addActivity":"Agregaste",
    "deleteEvent":"Eliminar Evento",
    "done": "Realizados",
    "emptyTripsTitle":"¿Ganas de viajar?",
    "emptyTripsText":"Empezá a organizar tu proximo viaje",
    "moveToDone": "Enviar a realizados",
    "tripDetail":"Detalle",
    "addEvent":"Agregar Evento",
    "event": "Evento",
    "addReserveOrEvent": "Agregar reserva o evento",
    "searchEvent":"Buscar en Almundo",
    "tripReservation":"Tengo una Reserva",
    "favourites":"favoritos",
    "itinerary":"itinerario",
    "customEvent":"Evento Personalizado",
    "customEvent2": "Evento personalizado",
    "next": "Próximos",
    "owner": "Creado por",
    "startTrip":"¡Empezá hoy a planificar tus viajes!",
    "logginAccountInfo":"Pero antes, necesitamos que tengas una cuenta para poder guardar tus itinerarios.",
    "tripOrigin":"¿De dónde salis? (opcional)",
    "verifyEmailTrips":"Vas a poder organizar tus viajes, pero antes, necesitamos que verifiques tu cuenta. Te enviamos un e-mail a",
    "whereGo":"¿A dónde vas?",
    "nameTrip": "Nombre del viaje",
    "hotelEventDetailTitle":"Tu hotel",
    "hotelEventStayDays":"Estadía",
    "hotelEventNight":"noches",
    "hotelEventCheckIn":"Entrada",
    "hotelEventCheckOut":"Salida",
    "CarEventDetailTitle":"Tu auto",
    "tripDestination": "¿A dónde queres ir?",
    "tripName": "Nombre del viaje",
    "persons": "Personas",
    "minor": "menor",
    "minors": "menores",
    "toThe": "Al",
    "invalidTotalPassengersNotificationMessage": "¡Ups! Podés seleccionar hasta 9 personas por viaje.",
    "FlightEventDetailTitle":"Tu vuelo",
    "insuranceEventDetailTitle":"Tu seguro",
    "othersEventTitle":"Tu evento",
    "eventOwner":"Agregador por",
    "tripSearch":"Ingresá un destino",
    "adult":"adulto",
    "adults":"adultos",
    "child":"niño",
    "children":"niños",
    "passengers":"pasajeros",
    "moveToOtherTrip": "Mover a otro viaje",
    "createTripWithYourProductMessage": "Creá un viaje con tu {{product}}, para que puedas planificar tu visita en un solo lugar.",
    "newReservationMessageLoggedIn": "Te creamos un {{trip}} para que puedas planificar tu visita en un solo lugar.",
    "reservationMessage": "Tu {{product}} se agregó a {{trip}}. ¡Seguí planificando tu visita en un solo lugar!",
    "search": "Buscar en Almundo",
    "reservePay": "Estamos procesando el pago de esta reserva.",
    "moveToDoneConfirmationMessage": "¿Querés enviar a realizados el viaje?",
    "deleteConfirmationMessage": "¿Querés eliminar el viaje?",
    "deleteTrip": "Eliminar viaje",
    "hasBeenDeletedYourTrip": "Eliminaste tu viaje",
    "hasBeenSentYourTripToDone": "Enviaste a realizados tu viaje",
    "hasBeenCreatedYourTrip": "Creaste tu viaje",
    "tripOutOfDate": "Modificá la fecha. El período que elegiste deja un evento fuera de tu viaje.",
    "flightsEnter": "Partida desde",
    "flightsLeave": "Llegada a",
    "carsEnter": "Retiro de",
    "carsLeave": "Entrega de",
    "hotelsEnter": "Entrada a",
    "hotelsLeave": "Salida de",
    "otherEnter": "Inicio de",
    "otherLeave": "Fin de",
    "tripPlanning": "Planificá tu viaje día por día",
    "tripCharge": "Cargá todas tus reservas y actividades.",
    "dateOutOfRange": "El período que elegiste deja un evento fuera de tu viaje.",
    "modifyDate": "Modificá la fecha",
    "name": "Nombre",
    "tripDescription": "Descripción (Opcional)",
    "initHour": "Hora de inicio",
    "endHour": "Hora de fin",
    "optionalReserveCode": "Código de reserva (Opcional)",
    "goingTo": "Llego a",
    "flightType": "Tipo de vuelo",
    "operatingAirline": "Aerolínea (Opcional)",
    "flightNumber": "Número de vuelo (Opcional)",
    "flightGoingTo": "Vuelo ida",
    "flightComingBack": "Vuelo vuelta",
    "flightDateReturn": "Fecha de llegada",
    "tripStartDate": "Fecha de inicio",
    "tripEndDate": "Fecha de fin",
    "company": "Compañía (Opcional)",
    "pickUpLocation": "Lugar de retiro",
    "dropOffLocation": "Lugar de entrega",
    "nameOfHotel": "Nombre del hotel",
    "destination": "Destino",
    "hotelCheckInDate": "Fecha de entrada",
    "hotelCheckOutDate": "Fecha de salida",
    "hotelCheckInTime": "Hora de entrada",
    "hotelCheckOutTime": "Hora de salida",
    "date": "Fecha",
    "hour": "Hora",
    "insuranceName": "Nombre del seguro",
    "local": "Local",
    "customTripOutOfDate": "Ups, la fecha de salida es mayor a la de llegada."
  }
}